-- Copyright (C) 1991-2007 Altera Corporation
-- Your use of Altera Corporation's design tools, logic functions 
-- and other software and tools, and its AMPP partner logic 
-- functions, and any output files from any of the foregoing 
-- (including device programming or simulation files), and any 
-- associated documentation or information are expressly subject 
-- to the terms and conditions of the Altera Program License 
-- Subscription Agreement, Altera MegaCore Function License 
-- Agreement, or other applicable license agreement, including, 
-- without limitation, that your use is for the sole purpose of 
-- programming logic devices manufactured by Altera and sold by 
-- Altera or its authorized distributors.  Please refer to the 
-- applicable agreement for further details.

-- Quartus II generated Memory Initialization File (.mif)

WIDTH=32;
DEPTH=2048;

ADDRESS_RADIX=HEX;
DATA_RADIX=HEX;

CONTENT BEGIN
	000  :   00000000;
	001  :   00000001;
	002  :   00000002;
	003  :   00000003;
	004  :   00000004;
	005  :   00000005;
	006  :   00000006;
	007  :   00000007;
	008  :   00000008;
	009  :   00000009;
	00A  :   0000000A;
	00B  :   0000000B;
	00C  :   0000000C;
	00D  :   0000000D;
	00E  :   0000000E;
	00F  :   0000000F;
	010  :   00000010;
	011  :   00000011;
	012  :   00000012;
	013  :   00000013;
	014  :   00000014;
	015  :   00000015;
	016  :   00000016;
	017  :   00000017;
	018  :   00000018;
	019  :   00000019;
	01A  :   0000001A;
	01B  :   0000001B;
	01C  :   0000001C;
	01D  :   0000001D;
	01E  :   0000001E;
	01F  :   0000001F;
	020  :   00000020;
	021  :   00000021;
	022  :   00000022;
	023  :   00000023;
	024  :   00000024;
	025  :   00000025;
	026  :   00000026;
	027  :   00000027;
	028  :   00000028;
	029  :   00000029;
	02A  :   0000002A;
	02B  :   0000002B;
	02C  :   0000002C;
	02D  :   0000002D;
	02E  :   0000002E;
	02F  :   0000002F;
	030  :   00000030;
	031  :   00000031;
	032  :   00000032;
	033  :   00000033;
	034  :   00000034;
	035  :   00000035;
	036  :   00000036;
	037  :   00000037;
	038  :   00000038;
	039  :   00000039;
	03A  :   0000003A;
	03B  :   0000003B;
	03C  :   0000003C;
	03D  :   0000003D;
	03E  :   0000003E;
	03F  :   0000003F;
	040  :   00000040;
	041  :   00000041;
	042  :   00000042;
	043  :   00000043;
	044  :   00000044;
	045  :   00000045;
	046  :   00000046;
	047  :   00000047;
	048  :   00000048;
	049  :   00000049;
	04A  :   0000004A;
	04B  :   0000004B;
	04C  :   0000004C;
	04D  :   0000004D;
	04E  :   0000004E;
	04F  :   0000004F;
	050  :   00000050;
	051  :   00000051;
	052  :   00000052;
	053  :   00000053;
	054  :   00000054;
	055  :   00000055;
	056  :   00000056;
	057  :   00000057;
	058  :   00000058;
	059  :   00000059;
	05A  :   0000005A;
	05B  :   0000005B;
	05C  :   0000005C;
	05D  :   0000005D;
	05E  :   0000005E;
	05F  :   0000005F;
	060  :   00000060;
	061  :   00000061;
	062  :   00000062;
	063  :   00000063;
	064  :   00000064;
	065  :   00000065;
	066  :   00000066;
	067  :   00000067;
	068  :   00000068;
	069  :   00000069;
	06A  :   0000006A;
	06B  :   0000006B;
	06C  :   0000006C;
	06D  :   0000006D;
	06E  :   0000006E;
	06F  :   0000006F;
	070  :   00000070;
	071  :   00000071;
	072  :   00000072;
	073  :   00000073;
	074  :   00000074;
	075  :   00000075;
	076  :   00000076;
	077  :   00000077;
	078  :   00000078;
	079  :   00000079;
	07A  :   0000007A;
	07B  :   0000007B;
	07C  :   0000007C;
	07D  :   0000007D;
	07E  :   0000007E;
	07F  :   0000007F;
	080  :   00000080;
	081  :   00000081;
	082  :   00000082;
	083  :   00000083;
	084  :   00000084;
	085  :   00000085;
	086  :   00000086;
	087  :   00000087;
	088  :   00000088;
	089  :   00000089;
	08A  :   0000008A;
	08B  :   0000008B;
	08C  :   0000008C;
	08D  :   0000008D;
	08E  :   0000008E;
	08F  :   0000008F;
	090  :   00000090;
	091  :   00000091;
	092  :   00000092;
	093  :   00000093;
	094  :   00000094;
	095  :   00000095;
	096  :   00000096;
	097  :   00000097;
	098  :   00000098;
	099  :   00000099;
	09A  :   0000009A;
	09B  :   0000009B;
	09C  :   0000009C;
	09D  :   0000009D;
	09E  :   0000009E;
	09F  :   0000009F;
	0A0  :   000000A0;
	0A1  :   000000A1;
	0A2  :   000000A2;
	0A3  :   000000A3;
	0A4  :   000000A4;
	0A5  :   000000A5;
	0A6  :   000000A6;
	0A7  :   000000A7;
	0A8  :   000000A8;
	0A9  :   000000A9;
	0AA  :   000000AA;
	0AB  :   000000AB;
	0AC  :   000000AC;
	0AD  :   000000AD;
	0AE  :   000000AE;
	0AF  :   000000AF;
	0B0  :   000000B0;
	0B1  :   000000B1;
	0B2  :   000000B2;
	0B3  :   000000B3;
	0B4  :   000000B4;
	0B5  :   000000B5;
	0B6  :   000000B6;
	0B7  :   000000B7;
	0B8  :   000000B8;
	0B9  :   000000B9;
	0BA  :   000000BA;
	0BB  :   000000BB;
	0BC  :   000000BC;
	0BD  :   000000BD;
	0BE  :   000000BE;
	0BF  :   000000BF;
	0C0  :   000000C0;
	0C1  :   000000C1;
	0C2  :   000000C2;
	0C3  :   000000C3;
	0C4  :   000000C4;
	0C5  :   000000C5;
	0C6  :   000000C6;
	0C7  :   000000C7;
	0C8  :   000000C8;
	0C9  :   000000C9;
	0CA  :   000000CA;
	0CB  :   000000CB;
	0CC  :   000000CC;
	0CD  :   000000CD;
	0CE  :   000000CE;
	0CF  :   000000CF;
	0D0  :   000000D0;
	0D1  :   000000D1;
	0D2  :   000000D2;
	0D3  :   000000D3;
	0D4  :   000000D4;
	0D5  :   000000D5;
	0D6  :   000000D6;
	0D7  :   000000D7;
	0D8  :   000000D8;
	0D9  :   000000D9;
	0DA  :   000000DA;
	0DB  :   000000DB;
	0DC  :   000000DC;
	0DD  :   000000DD;
	0DE  :   000000DE;
	0DF  :   000000DF;
	0E0  :   000000E0;
	0E1  :   000000E1;
	0E2  :   000000E2;
	0E3  :   000000E3;
	0E4  :   000000E4;
	0E5  :   000000E5;
	0E6  :   000000E6;
	0E7  :   000000E7;
	0E8  :   000000E8;
	0E9  :   000000E9;
	0EA  :   000000EA;
	0EB  :   000000EB;
	0EC  :   000000EC;
	0ED  :   000000ED;
	0EE  :   000000EE;
	0EF  :   000000EF;
	0F0  :   000000F0;
	0F1  :   000000F1;
	0F2  :   000000F2;
	0F3  :   000000F3;
	0F4  :   000000F4;
	0F5  :   000000F5;
	0F6  :   000000F6;
	0F7  :   000000F7;
	0F8  :   000000F8;
	0F9  :   000000F9;
	0FA  :   000000FA;
	0FB  :   000000FB;
	0FC  :   000000FC;
	0FD  :   000000FD;
	0FE  :   000000FE;
	0FF  :   000000FF;
	100  :   00000100;
	101  :   00000101;
	102  :   00000102;
	103  :   00000103;
	104  :   00000104;
	105  :   00000105;
	106  :   00000106;
	107  :   00000107;
	108  :   00000108;
	109  :   00000109;
	10A  :   0000010A;
	10B  :   0000010B;
	10C  :   0000010C;
	10D  :   0000010D;
	10E  :   0000010E;
	10F  :   0000010F;
	110  :   00000110;
	111  :   00000111;
	112  :   00000112;
	113  :   00000113;
	114  :   00000114;
	115  :   00000115;
	116  :   00000116;
	117  :   00000117;
	118  :   00000118;
	119  :   00000119;
	11A  :   0000011A;
	11B  :   0000011B;
	11C  :   0000011C;
	11D  :   0000011D;
	11E  :   0000011E;
	11F  :   0000011F;
	120  :   00000120;
	121  :   00000121;
	122  :   00000122;
	123  :   00000123;
	124  :   00000124;
	125  :   00000125;
	126  :   00000126;
	127  :   00000127;
	128  :   00000128;
	129  :   00000129;
	12A  :   0000012A;
	12B  :   0000012B;
	12C  :   0000012C;
	12D  :   0000012D;
	12E  :   0000012E;
	12F  :   0000012F;
	130  :   00000130;
	131  :   00000131;
	132  :   00000132;
	133  :   00000133;
	134  :   00000134;
	135  :   00000135;
	136  :   00000136;
	137  :   00000137;
	138  :   00000138;
	139  :   00000139;
	13A  :   0000013A;
	13B  :   0000013B;
	13C  :   0000013C;
	13D  :   0000013D;
	13E  :   0000013E;
	13F  :   0000013F;
	140  :   00000140;
	141  :   00000141;
	142  :   00000142;
	143  :   00000143;
	144  :   00000144;
	145  :   00000145;
	146  :   00000146;
	147  :   00000147;
	148  :   00000148;
	149  :   00000149;
	14A  :   0000014A;
	14B  :   0000014B;
	14C  :   0000014C;
	14D  :   0000014D;
	14E  :   0000014E;
	14F  :   0000014F;
	150  :   00000150;
	151  :   00000151;
	152  :   00000152;
	153  :   00000153;
	154  :   00000154;
	155  :   00000155;
	156  :   00000156;
	157  :   00000157;
	158  :   00000158;
	159  :   00000159;
	15A  :   0000015A;
	15B  :   0000015B;
	15C  :   0000015C;
	15D  :   0000015D;
	15E  :   0000015E;
	15F  :   0000015F;
	160  :   00000160;
	161  :   00000161;
	162  :   00000162;
	163  :   00000163;
	164  :   00000164;
	165  :   00000165;
	166  :   00000166;
	167  :   00000167;
	168  :   00000168;
	169  :   00000169;
	16A  :   0000016A;
	16B  :   0000016B;
	16C  :   0000016C;
	16D  :   0000016D;
	16E  :   0000016E;
	16F  :   0000016F;
	170  :   00000170;
	171  :   00000171;
	172  :   00000172;
	173  :   00000173;
	174  :   00000174;
	175  :   00000175;
	176  :   00000176;
	177  :   00000177;
	178  :   00000178;
	179  :   00000179;
	17A  :   0000017A;
	17B  :   0000017B;
	17C  :   0000017C;
	17D  :   0000017D;
	17E  :   0000017E;
	17F  :   0000017F;
	180  :   00000180;
	181  :   00000181;
	182  :   00000182;
	183  :   00000183;
	184  :   00000184;
	185  :   00000185;
	186  :   00000186;
	187  :   00000187;
	188  :   00000188;
	189  :   00000189;
	18A  :   0000018A;
	18B  :   0000018B;
	18C  :   0000018C;
	18D  :   0000018D;
	18E  :   0000018E;
	18F  :   0000018F;
	190  :   00000190;
	191  :   00000191;
	192  :   00000192;
	193  :   00000193;
	194  :   00000194;
	195  :   00000195;
	196  :   00000196;
	197  :   00000197;
	198  :   00000198;
	199  :   00000199;
	19A  :   0000019A;
	19B  :   0000019B;
	19C  :   0000019C;
	19D  :   0000019D;
	19E  :   0000019E;
	19F  :   0000019F;
	1A0  :   000001A0;
	1A1  :   000001A1;
	1A2  :   000001A2;
	1A3  :   000001A3;
	1A4  :   000001A4;
	1A5  :   000001A5;
	1A6  :   000001A6;
	1A7  :   000001A7;
	1A8  :   000001A8;
	1A9  :   000001A9;
	1AA  :   000001AA;
	1AB  :   000001AB;
	1AC  :   000001AC;
	1AD  :   000001AD;
	1AE  :   000001AE;
	1AF  :   000001AF;
	1B0  :   000001B0;
	1B1  :   000001B1;
	1B2  :   000001B2;
	1B3  :   000001B3;
	1B4  :   000001B4;
	1B5  :   000001B5;
	1B6  :   000001B6;
	1B7  :   000001B7;
	1B8  :   000001B8;
	1B9  :   000001B9;
	1BA  :   000001BA;
	1BB  :   000001BB;
	1BC  :   000001BC;
	1BD  :   000001BD;
	1BE  :   000001BE;
	1BF  :   000001BF;
	1C0  :   000001C0;
	1C1  :   000001C1;
	1C2  :   000001C2;
	1C3  :   000001C3;
	1C4  :   000001C4;
	1C5  :   000001C5;
	1C6  :   000001C6;
	1C7  :   000001C7;
	1C8  :   000001C8;
	1C9  :   000001C9;
	1CA  :   000001CA;
	1CB  :   000001CB;
	1CC  :   000001CC;
	1CD  :   000001CD;
	1CE  :   000001CE;
	1CF  :   000001CF;
	1D0  :   000001D0;
	1D1  :   000001D1;
	1D2  :   000001D2;
	1D3  :   000001D3;
	1D4  :   000001D4;
	1D5  :   000001D5;
	1D6  :   000001D6;
	1D7  :   000001D7;
	1D8  :   000001D8;
	1D9  :   000001D9;
	1DA  :   000001DA;
	1DB  :   000001DB;
	1DC  :   000001DC;
	1DD  :   000001DD;
	1DE  :   000001DE;
	1DF  :   000001DF;
	1E0  :   000001E0;
	1E1  :   000001E1;
	1E2  :   000001E2;
	1E3  :   000001E3;
	1E4  :   000001E4;
	1E5  :   000001E5;
	1E6  :   000001E6;
	1E7  :   000001E7;
	1E8  :   000001E8;
	1E9  :   000001E9;
	1EA  :   000001EA;
	1EB  :   000001EB;
	1EC  :   000001EC;
	1ED  :   000001ED;
	1EE  :   000001EE;
	1EF  :   000001EF;
	1F0  :   000001F0;
	1F1  :   000001F1;
	1F2  :   000001F2;
	1F3  :   000001F3;
	1F4  :   000001F4;
	1F5  :   000001F5;
	1F6  :   000001F6;
	1F7  :   000001F7;
	1F8  :   000001F8;
	1F9  :   000001F9;
	1FA  :   000001FA;
	1FB  :   000001FB;
	1FC  :   000001FC;
	1FD  :   000001FD;
	1FE  :   000001FE;
	1FF  :   000001FF;
	200  :   00000200;
	201  :   00000201;
	202  :   00000202;
	203  :   00000203;
	204  :   00000204;
	205  :   00000205;
	206  :   00000206;
	207  :   00000207;
	208  :   00000208;
	209  :   00000209;
	20A  :   0000020A;
	20B  :   0000020B;
	20C  :   0000020C;
	20D  :   0000020D;
	20E  :   0000020E;
	20F  :   0000020F;
	210  :   00000210;
	211  :   00000211;
	212  :   00000212;
	213  :   00000213;
	214  :   00000214;
	215  :   00000215;
	216  :   00000216;
	217  :   00000217;
	218  :   00000218;
	219  :   00000219;
	21A  :   0000021A;
	21B  :   0000021B;
	21C  :   0000021C;
	21D  :   0000021D;
	21E  :   0000021E;
	21F  :   0000021F;
	220  :   00000220;
	221  :   00000221;
	222  :   00000222;
	223  :   00000223;
	224  :   00000224;
	225  :   00000225;
	226  :   00000226;
	227  :   00000227;
	228  :   00000228;
	229  :   00000229;
	22A  :   0000022A;
	22B  :   0000022B;
	22C  :   0000022C;
	22D  :   0000022D;
	22E  :   0000022E;
	22F  :   0000022F;
	230  :   00000230;
	231  :   00000231;
	232  :   00000232;
	233  :   00000233;
	234  :   00000234;
	235  :   00000235;
	236  :   00000236;
	237  :   00000237;
	238  :   00000238;
	239  :   00000239;
	23A  :   0000023A;
	23B  :   0000023B;
	23C  :   0000023C;
	23D  :   0000023D;
	23E  :   0000023E;
	23F  :   0000023F;
	240  :   00000240;
	241  :   00000241;
	242  :   00000242;
	243  :   00000243;
	244  :   00000244;
	245  :   00000245;
	246  :   00000246;
	247  :   00000247;
	248  :   00000248;
	249  :   00000249;
	24A  :   0000024A;
	24B  :   0000024B;
	24C  :   0000024C;
	24D  :   0000024D;
	24E  :   0000024E;
	24F  :   0000024F;
	250  :   00000250;
	251  :   00000251;
	252  :   00000252;
	253  :   00000253;
	254  :   00000254;
	255  :   00000255;
	256  :   00000256;
	257  :   00000257;
	258  :   00000258;
	259  :   00000259;
	25A  :   0000025A;
	25B  :   0000025B;
	25C  :   0000025C;
	25D  :   0000025D;
	25E  :   0000025E;
	25F  :   0000025F;
	260  :   00000260;
	261  :   00000261;
	262  :   00000262;
	263  :   00000263;
	264  :   00000264;
	265  :   00000265;
	266  :   00000266;
	267  :   00000267;
	268  :   00000268;
	269  :   00000269;
	26A  :   0000026A;
	26B  :   0000026B;
	26C  :   0000026C;
	26D  :   0000026D;
	26E  :   0000026E;
	26F  :   0000026F;
	270  :   00000270;
	271  :   00000271;
	272  :   00000272;
	273  :   00000273;
	274  :   00000274;
	275  :   00000275;
	276  :   00000276;
	277  :   00000277;
	278  :   00000278;
	279  :   00000279;
	27A  :   0000027A;
	27B  :   0000027B;
	27C  :   0000027C;
	27D  :   0000027D;
	27E  :   0000027E;
	27F  :   0000027F;
	280  :   00000280;
	281  :   00000281;
	282  :   00000282;
	283  :   00000283;
	284  :   00000284;
	285  :   00000285;
	286  :   00000286;
	287  :   00000287;
	288  :   00000288;
	289  :   00000289;
	28A  :   0000028A;
	28B  :   0000028B;
	28C  :   0000028C;
	28D  :   0000028D;
	28E  :   0000028E;
	28F  :   0000028F;
	290  :   00000290;
	291  :   00000291;
	292  :   00000292;
	293  :   00000293;
	294  :   00000294;
	295  :   00000295;
	296  :   00000296;
	297  :   00000297;
	298  :   00000298;
	299  :   00000299;
	29A  :   0000029A;
	29B  :   0000029B;
	29C  :   0000029C;
	29D  :   0000029D;
	29E  :   0000029E;
	29F  :   0000029F;
	2A0  :   000002A0;
	2A1  :   000002A1;
	2A2  :   000002A2;
	2A3  :   000002A3;
	2A4  :   000002A4;
	2A5  :   000002A5;
	2A6  :   000002A6;
	2A7  :   000002A7;
	2A8  :   000002A8;
	2A9  :   000002A9;
	2AA  :   000002AA;
	2AB  :   000002AB;
	2AC  :   000002AC;
	2AD  :   000002AD;
	2AE  :   000002AE;
	2AF  :   000002AF;
	2B0  :   000002B0;
	2B1  :   000002B1;
	2B2  :   000002B2;
	2B3  :   000002B3;
	2B4  :   000002B4;
	2B5  :   000002B5;
	2B6  :   000002B6;
	2B7  :   000002B7;
	2B8  :   000002B8;
	2B9  :   000002B9;
	2BA  :   000002BA;
	2BB  :   000002BB;
	2BC  :   000002BC;
	2BD  :   000002BD;
	2BE  :   000002BE;
	2BF  :   000002BF;
	2C0  :   000002C0;
	2C1  :   000002C1;
	2C2  :   000002C2;
	2C3  :   000002C3;
	2C4  :   000002C4;
	2C5  :   000002C5;
	2C6  :   000002C6;
	2C7  :   000002C7;
	2C8  :   000002C8;
	2C9  :   000002C9;
	2CA  :   000002CA;
	2CB  :   000002CB;
	2CC  :   000002CC;
	2CD  :   000002CD;
	2CE  :   000002CE;
	2CF  :   000002CF;
	2D0  :   000002D0;
	2D1  :   000002D1;
	2D2  :   000002D2;
	2D3  :   000002D3;
	2D4  :   000002D4;
	2D5  :   000002D5;
	2D6  :   000002D6;
	2D7  :   000002D7;
	2D8  :   000002D8;
	2D9  :   000002D9;
	2DA  :   000002DA;
	2DB  :   000002DB;
	2DC  :   000002DC;
	2DD  :   000002DD;
	2DE  :   000002DE;
	2DF  :   000002DF;
	2E0  :   000002E0;
	2E1  :   000002E1;
	2E2  :   000002E2;
	2E3  :   000002E3;
	2E4  :   000002E4;
	2E5  :   000002E5;
	2E6  :   000002E6;
	2E7  :   000002E7;
	2E8  :   000002E8;
	2E9  :   000002E9;
	2EA  :   000002EA;
	2EB  :   000002EB;
	2EC  :   000002EC;
	2ED  :   000002ED;
	2EE  :   000002EE;
	2EF  :   000002EF;
	2F0  :   000002F0;
	2F1  :   000002F1;
	2F2  :   000002F2;
	2F3  :   000002F3;
	2F4  :   000002F4;
	2F5  :   000002F5;
	2F6  :   000002F6;
	2F7  :   000002F7;
	2F8  :   000002F8;
	2F9  :   000002F9;
	2FA  :   000002FA;
	2FB  :   000002FB;
	2FC  :   000002FC;
	2FD  :   000002FD;
	2FE  :   000002FE;
	2FF  :   000002FF;
	300  :   00000300;
	301  :   00000301;
	302  :   00000302;
	303  :   00000303;
	304  :   00000304;
	305  :   00000305;
	306  :   00000306;
	307  :   00000307;
	308  :   00000308;
	309  :   00000309;
	30A  :   0000030A;
	30B  :   0000030B;
	30C  :   0000030C;
	30D  :   0000030D;
	30E  :   0000030E;
	30F  :   0000030F;
	310  :   00000310;
	311  :   00000311;
	312  :   00000312;
	313  :   00000313;
	314  :   00000314;
	315  :   00000315;
	316  :   00000316;
	317  :   00000317;
	318  :   00000318;
	319  :   00000319;
	31A  :   0000031A;
	31B  :   0000031B;
	31C  :   0000031C;
	31D  :   0000031D;
	31E  :   0000031E;
	31F  :   0000031F;
	320  :   00000320;
	321  :   00000321;
	322  :   00000322;
	323  :   00000323;
	324  :   00000324;
	325  :   00000325;
	326  :   00000326;
	327  :   00000327;
	328  :   00000328;
	329  :   00000329;
	32A  :   0000032A;
	32B  :   0000032B;
	32C  :   0000032C;
	32D  :   0000032D;
	32E  :   0000032E;
	32F  :   0000032F;
	330  :   00000330;
	331  :   00000331;
	332  :   00000332;
	333  :   00000333;
	334  :   00000334;
	335  :   00000335;
	336  :   00000336;
	337  :   00000337;
	338  :   00000338;
	339  :   00000339;
	33A  :   0000033A;
	33B  :   0000033B;
	33C  :   0000033C;
	33D  :   0000033D;
	33E  :   0000033E;
	33F  :   0000033F;
	340  :   00000340;
	341  :   00000341;
	342  :   00000342;
	343  :   00000343;
	344  :   00000344;
	345  :   00000345;
	346  :   00000346;
	347  :   00000347;
	348  :   00000348;
	349  :   00000349;
	34A  :   0000034A;
	34B  :   0000034B;
	34C  :   0000034C;
	34D  :   0000034D;
	34E  :   0000034E;
	34F  :   0000034F;
	350  :   00000350;
	351  :   00000351;
	352  :   00000352;
	353  :   00000353;
	354  :   00000354;
	355  :   00000355;
	356  :   00000356;
	357  :   00000357;
	358  :   00000358;
	359  :   00000359;
	35A  :   0000035A;
	35B  :   0000035B;
	35C  :   0000035C;
	35D  :   0000035D;
	35E  :   0000035E;
	35F  :   0000035F;
	360  :   00000360;
	361  :   00000361;
	362  :   00000362;
	363  :   00000363;
	364  :   00000364;
	365  :   00000365;
	366  :   00000366;
	367  :   00000367;
	368  :   00000368;
	369  :   00000369;
	36A  :   0000036A;
	36B  :   0000036B;
	36C  :   0000036C;
	36D  :   0000036D;
	36E  :   0000036E;
	36F  :   0000036F;
	370  :   00000370;
	371  :   00000371;
	372  :   00000372;
	373  :   00000373;
	374  :   00000374;
	375  :   00000375;
	376  :   00000376;
	377  :   00000377;
	378  :   00000378;
	379  :   00000379;
	37A  :   0000037A;
	37B  :   0000037B;
	37C  :   0000037C;
	37D  :   0000037D;
	37E  :   0000037E;
	37F  :   0000037F;
	380  :   00000380;
	381  :   00000381;
	382  :   00000382;
	383  :   00000383;
	384  :   00000384;
	385  :   00000385;
	386  :   00000386;
	387  :   00000387;
	388  :   00000388;
	389  :   00000389;
	38A  :   0000038A;
	38B  :   0000038B;
	38C  :   0000038C;
	38D  :   0000038D;
	38E  :   0000038E;
	38F  :   0000038F;
	390  :   00000390;
	391  :   00000391;
	392  :   00000392;
	393  :   00000393;
	394  :   00000394;
	395  :   00000395;
	396  :   00000396;
	397  :   00000397;
	398  :   00000398;
	399  :   00000399;
	39A  :   0000039A;
	39B  :   0000039B;
	39C  :   0000039C;
	39D  :   0000039D;
	39E  :   0000039E;
	39F  :   0000039F;
	3A0  :   000003A0;
	3A1  :   000003A1;
	3A2  :   000003A2;
	3A3  :   000003A3;
	3A4  :   000003A4;
	3A5  :   000003A5;
	3A6  :   000003A6;
	3A7  :   000003A7;
	3A8  :   000003A8;
	3A9  :   000003A9;
	3AA  :   000003AA;
	3AB  :   000003AB;
	3AC  :   000003AC;
	3AD  :   000003AD;
	3AE  :   000003AE;
	3AF  :   000003AF;
	3B0  :   000003B0;
	3B1  :   000003B1;
	3B2  :   000003B2;
	3B3  :   000003B3;
	3B4  :   000003B4;
	3B5  :   000003B5;
	3B6  :   000003B6;
	3B7  :   000003B7;
	3B8  :   000003B8;
	3B9  :   000003B9;
	3BA  :   000003BA;
	3BB  :   000003BB;
	3BC  :   000003BC;
	3BD  :   000003BD;
	3BE  :   000003BE;
	3BF  :   000003BF;
	3C0  :   000003C0;
	3C1  :   000003C1;
	3C2  :   000003C2;
	3C3  :   000003C3;
	3C4  :   000003C4;
	3C5  :   000003C5;
	3C6  :   000003C6;
	3C7  :   000003C7;
	3C8  :   000003C8;
	3C9  :   000003C9;
	3CA  :   000003CA;
	3CB  :   000003CB;
	3CC  :   000003CC;
	3CD  :   000003CD;
	3CE  :   000003CE;
	3CF  :   000003CF;
	3D0  :   000003D0;
	3D1  :   000003D1;
	3D2  :   000003D2;
	3D3  :   000003D3;
	3D4  :   000003D4;
	3D5  :   000003D5;
	3D6  :   000003D6;
	3D7  :   000003D7;
	3D8  :   000003D8;
	3D9  :   000003D9;
	3DA  :   000003DA;
	3DB  :   000003DB;
	3DC  :   000003DC;
	3DD  :   000003DD;
	3DE  :   000003DE;
	3DF  :   000003DF;
	3E0  :   000003E0;
	3E1  :   000003E1;
	3E2  :   000003E2;
	3E3  :   000003E3;
	3E4  :   000003E4;
	3E5  :   000003E5;
	3E6  :   000003E6;
	3E7  :   000003E7;
	3E8  :   000003E8;
	3E9  :   000003E9;
	3EA  :   000003EA;
	3EB  :   000003EB;
	3EC  :   000003EC;
	3ED  :   000003ED;
	3EE  :   000003EE;
	3EF  :   000003EF;
	3F0  :   000003F0;
	3F1  :   000003F1;
	3F2  :   000003F2;
	3F3  :   000003F3;
	3F4  :   000003F4;
	3F5  :   000003F5;
	3F6  :   000003F6;
	3F7  :   000003F7;
	3F8  :   000003F8;
	3F9  :   000003F9;
	3FA  :   000003FA;
	3FB  :   000003FB;
	3FC  :   000003FC;
	3FD  :   000003FD;
	3FE  :   000003FE;
	3FF  :   000003FF;
	400  :   00000400;
	401  :   00000401;
	402  :   00000402;
	403  :   00000403;
	404  :   00000404;
	405  :   00000405;
	406  :   00000406;
	407  :   00000407;
	408  :   00000408;
	409  :   00000409;
	40A  :   0000040A;
	40B  :   0000040B;
	40C  :   0000040C;
	40D  :   0000040D;
	40E  :   0000040E;
	40F  :   0000040F;
	410  :   00000410;
	411  :   00000411;
	412  :   00000412;
	413  :   00000413;
	414  :   00000414;
	415  :   00000415;
	416  :   00000416;
	417  :   00000417;
	418  :   00000418;
	419  :   00000419;
	41A  :   0000041A;
	41B  :   0000041B;
	41C  :   0000041C;
	41D  :   0000041D;
	41E  :   0000041E;
	41F  :   0000041F;
	420  :   00000420;
	421  :   00000421;
	422  :   00000422;
	423  :   00000423;
	424  :   00000424;
	425  :   00000425;
	426  :   00000426;
	427  :   00000427;
	428  :   00000428;
	429  :   00000429;
	42A  :   0000042A;
	42B  :   0000042B;
	42C  :   0000042C;
	42D  :   0000042D;
	42E  :   0000042E;
	42F  :   0000042F;
	430  :   00000430;
	431  :   00000431;
	432  :   00000432;
	433  :   00000433;
	434  :   00000434;
	435  :   00000435;
	436  :   00000436;
	437  :   00000437;
	438  :   00000438;
	439  :   00000439;
	43A  :   0000043A;
	43B  :   0000043B;
	43C  :   0000043C;
	43D  :   0000043D;
	43E  :   0000043E;
	43F  :   0000043F;
	440  :   00000440;
	441  :   00000441;
	442  :   00000442;
	443  :   00000443;
	444  :   00000444;
	445  :   00000445;
	446  :   00000446;
	447  :   00000447;
	448  :   00000448;
	449  :   00000449;
	44A  :   0000044A;
	44B  :   0000044B;
	44C  :   0000044C;
	44D  :   0000044D;
	44E  :   0000044E;
	44F  :   0000044F;
	450  :   00000450;
	451  :   00000451;
	452  :   00000452;
	453  :   00000453;
	454  :   00000454;
	455  :   00000455;
	456  :   00000456;
	457  :   00000457;
	458  :   00000458;
	459  :   00000459;
	45A  :   0000045A;
	45B  :   0000045B;
	45C  :   0000045C;
	45D  :   0000045D;
	45E  :   0000045E;
	45F  :   0000045F;
	460  :   00000460;
	461  :   00000461;
	462  :   00000462;
	463  :   00000463;
	464  :   00000464;
	465  :   00000465;
	466  :   00000466;
	467  :   00000467;
	468  :   00000468;
	469  :   00000469;
	46A  :   0000046A;
	46B  :   0000046B;
	46C  :   0000046C;
	46D  :   0000046D;
	46E  :   0000046E;
	46F  :   0000046F;
	470  :   00000470;
	471  :   00000471;
	472  :   00000472;
	473  :   00000473;
	474  :   00000474;
	475  :   00000475;
	476  :   00000476;
	477  :   00000477;
	478  :   00000478;
	479  :   00000479;
	47A  :   0000047A;
	47B  :   0000047B;
	47C  :   0000047C;
	47D  :   0000047D;
	47E  :   0000047E;
	47F  :   0000047F;
	480  :   00000480;
	481  :   00000481;
	482  :   00000482;
	483  :   00000483;
	484  :   00000484;
	485  :   00000485;
	486  :   00000486;
	487  :   00000487;
	488  :   00000488;
	489  :   00000489;
	48A  :   0000048A;
	48B  :   0000048B;
	48C  :   0000048C;
	48D  :   0000048D;
	48E  :   0000048E;
	48F  :   0000048F;
	490  :   00000490;
	491  :   00000491;
	492  :   00000492;
	493  :   00000493;
	494  :   00000494;
	495  :   00000495;
	496  :   00000496;
	497  :   00000497;
	498  :   00000498;
	499  :   00000499;
	49A  :   0000049A;
	49B  :   0000049B;
	49C  :   0000049C;
	49D  :   0000049D;
	49E  :   0000049E;
	49F  :   0000049F;
	4A0  :   000004A0;
	4A1  :   000004A1;
	4A2  :   000004A2;
	4A3  :   000004A3;
	4A4  :   000004A4;
	4A5  :   000004A5;
	4A6  :   000004A6;
	4A7  :   000004A7;
	4A8  :   000004A8;
	4A9  :   000004A9;
	4AA  :   000004AA;
	4AB  :   000004AB;
	4AC  :   000004AC;
	4AD  :   000004AD;
	4AE  :   000004AE;
	4AF  :   000004AF;
	4B0  :   000004B0;
	4B1  :   000004B1;
	4B2  :   000004B2;
	4B3  :   000004B3;
	4B4  :   000004B4;
	4B5  :   000004B5;
	4B6  :   000004B6;
	4B7  :   000004B7;
	4B8  :   000004B8;
	4B9  :   000004B9;
	4BA  :   000004BA;
	4BB  :   000004BB;
	4BC  :   000004BC;
	4BD  :   000004BD;
	4BE  :   000004BE;
	4BF  :   000004BF;
	4C0  :   000004C0;
	4C1  :   000004C1;
	4C2  :   000004C2;
	4C3  :   000004C3;
	4C4  :   000004C4;
	4C5  :   000004C5;
	4C6  :   000004C6;
	4C7  :   000004C7;
	4C8  :   000004C8;
	4C9  :   000004C9;
	4CA  :   000004CA;
	4CB  :   000004CB;
	4CC  :   000004CC;
	4CD  :   000004CD;
	4CE  :   000004CE;
	4CF  :   000004CF;
	4D0  :   000004D0;
	4D1  :   000004D1;
	4D2  :   000004D2;
	4D3  :   000004D3;
	4D4  :   000004D4;
	4D5  :   000004D5;
	4D6  :   000004D6;
	4D7  :   000004D7;
	4D8  :   000004D8;
	4D9  :   000004D9;
	4DA  :   000004DA;
	4DB  :   000004DB;
	4DC  :   000004DC;
	4DD  :   000004DD;
	4DE  :   000004DE;
	4DF  :   000004DF;
	4E0  :   000004E0;
	4E1  :   000004E1;
	4E2  :   000004E2;
	4E3  :   000004E3;
	4E4  :   000004E4;
	4E5  :   000004E5;
	4E6  :   000004E6;
	4E7  :   000004E7;
	4E8  :   000004E8;
	4E9  :   000004E9;
	4EA  :   000004EA;
	4EB  :   000004EB;
	4EC  :   000004EC;
	4ED  :   000004ED;
	4EE  :   000004EE;
	4EF  :   000004EF;
	4F0  :   000004F0;
	4F1  :   000004F1;
	4F2  :   000004F2;
	4F3  :   000004F3;
	4F4  :   000004F4;
	4F5  :   000004F5;
	4F6  :   000004F6;
	4F7  :   000004F7;
	4F8  :   000004F8;
	4F9  :   000004F9;
	4FA  :   000004FA;
	4FB  :   000004FB;
	4FC  :   000004FC;
	4FD  :   000004FD;
	4FE  :   000004FE;
	4FF  :   000004FF;
	500  :   00000500;
	501  :   00000501;
	502  :   00000502;
	503  :   00000503;
	504  :   00000504;
	505  :   00000505;
	506  :   00000506;
	507  :   00000507;
	508  :   00000508;
	509  :   00000509;
	50A  :   0000050A;
	50B  :   0000050B;
	50C  :   0000050C;
	50D  :   0000050D;
	50E  :   0000050E;
	50F  :   0000050F;
	510  :   00000510;
	511  :   00000511;
	512  :   00000512;
	513  :   00000513;
	514  :   00000514;
	515  :   00000515;
	516  :   00000516;
	517  :   00000517;
	518  :   00000518;
	519  :   00000519;
	51A  :   0000051A;
	51B  :   0000051B;
	51C  :   0000051C;
	51D  :   0000051D;
	51E  :   0000051E;
	51F  :   0000051F;
	520  :   00000520;
	521  :   00000521;
	522  :   00000522;
	523  :   00000523;
	524  :   00000524;
	525  :   00000525;
	526  :   00000526;
	527  :   00000527;
	528  :   00000528;
	529  :   00000529;
	52A  :   0000052A;
	52B  :   0000052B;
	52C  :   0000052C;
	52D  :   0000052D;
	52E  :   0000052E;
	52F  :   0000052F;
	530  :   00000530;
	531  :   00000531;
	532  :   00000532;
	533  :   00000533;
	534  :   00000534;
	535  :   00000535;
	536  :   00000536;
	537  :   00000537;
	538  :   00000538;
	539  :   00000539;
	53A  :   0000053A;
	53B  :   0000053B;
	53C  :   0000053C;
	53D  :   0000053D;
	53E  :   0000053E;
	53F  :   0000053F;
	540  :   00000540;
	541  :   00000541;
	542  :   00000542;
	543  :   00000543;
	544  :   00000544;
	545  :   00000545;
	546  :   00000546;
	547  :   00000547;
	548  :   00000548;
	549  :   00000549;
	54A  :   0000054A;
	54B  :   0000054B;
	54C  :   0000054C;
	54D  :   0000054D;
	54E  :   0000054E;
	54F  :   0000054F;
	550  :   00000550;
	551  :   00000551;
	552  :   00000552;
	553  :   00000553;
	554  :   00000554;
	555  :   00000555;
	556  :   00000556;
	557  :   00000557;
	558  :   00000558;
	559  :   00000559;
	55A  :   0000055A;
	55B  :   0000055B;
	55C  :   0000055C;
	55D  :   0000055D;
	55E  :   0000055E;
	55F  :   0000055F;
	560  :   00000560;
	561  :   00000561;
	562  :   00000562;
	563  :   00000563;
	564  :   00000564;
	565  :   00000565;
	566  :   00000566;
	567  :   00000567;
	568  :   00000568;
	569  :   00000569;
	56A  :   0000056A;
	56B  :   0000056B;
	56C  :   0000056C;
	56D  :   0000056D;
	56E  :   0000056E;
	56F  :   0000056F;
	570  :   00000570;
	571  :   00000571;
	572  :   00000572;
	573  :   00000573;
	574  :   00000574;
	575  :   00000575;
	576  :   00000576;
	577  :   00000577;
	578  :   00000578;
	579  :   00000579;
	57A  :   0000057A;
	57B  :   0000057B;
	57C  :   0000057C;
	57D  :   0000057D;
	57E  :   0000057E;
	57F  :   0000057F;
	580  :   00000580;
	581  :   00000581;
	582  :   00000582;
	583  :   00000583;
	584  :   00000584;
	585  :   00000585;
	586  :   00000586;
	587  :   00000587;
	588  :   00000588;
	589  :   00000589;
	58A  :   0000058A;
	58B  :   0000058B;
	58C  :   0000058C;
	58D  :   0000058D;
	58E  :   0000058E;
	58F  :   0000058F;
	590  :   00000590;
	591  :   00000591;
	592  :   00000592;
	593  :   00000593;
	594  :   00000594;
	595  :   00000595;
	596  :   00000596;
	597  :   00000597;
	598  :   00000598;
	599  :   00000599;
	59A  :   0000059A;
	59B  :   0000059B;
	59C  :   0000059C;
	59D  :   0000059D;
	59E  :   0000059E;
	59F  :   0000059F;
	5A0  :   000005A0;
	5A1  :   000005A1;
	5A2  :   000005A2;
	5A3  :   000005A3;
	5A4  :   000005A4;
	5A5  :   000005A5;
	5A6  :   000005A6;
	5A7  :   000005A7;
	5A8  :   000005A8;
	5A9  :   000005A9;
	5AA  :   000005AA;
	5AB  :   000005AB;
	5AC  :   000005AC;
	5AD  :   000005AD;
	5AE  :   000005AE;
	5AF  :   000005AF;
	5B0  :   000005B0;
	5B1  :   000005B1;
	5B2  :   000005B2;
	5B3  :   000005B3;
	5B4  :   000005B4;
	5B5  :   000005B5;
	5B6  :   000005B6;
	5B7  :   000005B7;
	5B8  :   000005B8;
	5B9  :   000005B9;
	5BA  :   000005BA;
	5BB  :   000005BB;
	5BC  :   000005BC;
	5BD  :   000005BD;
	5BE  :   000005BE;
	5BF  :   000005BF;
	5C0  :   000005C0;
	5C1  :   000005C1;
	5C2  :   000005C2;
	5C3  :   000005C3;
	5C4  :   000005C4;
	5C5  :   000005C5;
	5C6  :   000005C6;
	5C7  :   000005C7;
	5C8  :   000005C8;
	5C9  :   000005C9;
	5CA  :   000005CA;
	5CB  :   000005CB;
	5CC  :   000005CC;
	5CD  :   000005CD;
	5CE  :   000005CE;
	5CF  :   000005CF;
	5D0  :   000005D0;
	5D1  :   000005D1;
	5D2  :   000005D2;
	5D3  :   000005D3;
	5D4  :   000005D4;
	5D5  :   000005D5;
	5D6  :   000005D6;
	5D7  :   000005D7;
	5D8  :   000005D8;
	5D9  :   000005D9;
	5DA  :   000005DA;
	5DB  :   000005DB;
	5DC  :   000005DC;
	5DD  :   000005DD;
	5DE  :   000005DE;
	5DF  :   000005DF;
	5E0  :   000005E0;
	5E1  :   000005E1;
	5E2  :   000005E2;
	5E3  :   000005E3;
	5E4  :   000005E4;
	5E5  :   000005E5;
	5E6  :   000005E6;
	5E7  :   000005E7;
	5E8  :   000005E8;
	5E9  :   000005E9;
	5EA  :   000005EA;
	5EB  :   000005EB;
	5EC  :   000005EC;
	5ED  :   000005ED;
	5EE  :   000005EE;
	5EF  :   000005EF;
	5F0  :   000005F0;
	5F1  :   000005F1;
	5F2  :   000005F2;
	5F3  :   000005F3;
	5F4  :   000005F4;
	5F5  :   000005F5;
	5F6  :   000005F6;
	5F7  :   000005F7;
	5F8  :   000005F8;
	5F9  :   000005F9;
	5FA  :   000005FA;
	5FB  :   000005FB;
	5FC  :   000005FC;
	5FD  :   000005FD;
	5FE  :   000005FE;
	5FF  :   000005FF;
	600  :   00000600;
	601  :   00000601;
	602  :   00000602;
	603  :   00000603;
	604  :   00000604;
	605  :   00000605;
	606  :   00000606;
	607  :   00000607;
	608  :   00000608;
	609  :   00000609;
	60A  :   0000060A;
	60B  :   0000060B;
	60C  :   0000060C;
	60D  :   0000060D;
	60E  :   0000060E;
	60F  :   0000060F;
	610  :   00000610;
	611  :   00000611;
	612  :   00000612;
	613  :   00000613;
	614  :   00000614;
	615  :   00000615;
	616  :   00000616;
	617  :   00000617;
	618  :   00000618;
	619  :   00000619;
	61A  :   0000061A;
	61B  :   0000061B;
	61C  :   0000061C;
	61D  :   0000061D;
	61E  :   0000061E;
	61F  :   0000061F;
	620  :   00000620;
	621  :   00000621;
	622  :   00000622;
	623  :   00000623;
	624  :   00000624;
	625  :   00000625;
	626  :   00000626;
	627  :   00000627;
	628  :   00000628;
	629  :   00000629;
	62A  :   0000062A;
	62B  :   0000062B;
	62C  :   0000062C;
	62D  :   0000062D;
	62E  :   0000062E;
	62F  :   0000062F;
	630  :   00000630;
	631  :   00000631;
	632  :   00000632;
	633  :   00000633;
	634  :   00000634;
	635  :   00000635;
	636  :   00000636;
	637  :   00000637;
	638  :   00000638;
	639  :   00000639;
	63A  :   0000063A;
	63B  :   0000063B;
	63C  :   0000063C;
	63D  :   0000063D;
	63E  :   0000063E;
	63F  :   0000063F;
	640  :   00000640;
	641  :   00000641;
	642  :   00000642;
	643  :   00000643;
	644  :   00000644;
	645  :   00000645;
	646  :   00000646;
	647  :   00000647;
	648  :   00000648;
	649  :   00000649;
	64A  :   0000064A;
	64B  :   0000064B;
	64C  :   0000064C;
	64D  :   0000064D;
	64E  :   0000064E;
	64F  :   0000064F;
	650  :   00000650;
	651  :   00000651;
	652  :   00000652;
	653  :   00000653;
	654  :   00000654;
	655  :   00000655;
	656  :   00000656;
	657  :   00000657;
	658  :   00000658;
	659  :   00000659;
	65A  :   0000065A;
	65B  :   0000065B;
	65C  :   0000065C;
	65D  :   0000065D;
	65E  :   0000065E;
	65F  :   0000065F;
	660  :   00000660;
	661  :   00000661;
	662  :   00000662;
	663  :   00000663;
	664  :   00000664;
	665  :   00000665;
	666  :   00000666;
	667  :   00000667;
	668  :   00000668;
	669  :   00000669;
	66A  :   0000066A;
	66B  :   0000066B;
	66C  :   0000066C;
	66D  :   0000066D;
	66E  :   0000066E;
	66F  :   0000066F;
	670  :   00000670;
	671  :   00000671;
	672  :   00000672;
	673  :   00000673;
	674  :   00000674;
	675  :   00000675;
	676  :   00000676;
	677  :   00000677;
	678  :   00000678;
	679  :   00000679;
	67A  :   0000067A;
	67B  :   0000067B;
	67C  :   0000067C;
	67D  :   0000067D;
	67E  :   0000067E;
	67F  :   0000067F;
	680  :   00000680;
	681  :   00000681;
	682  :   00000682;
	683  :   00000683;
	684  :   00000684;
	685  :   00000685;
	686  :   00000686;
	687  :   00000687;
	688  :   00000688;
	689  :   00000689;
	68A  :   0000068A;
	68B  :   0000068B;
	68C  :   0000068C;
	68D  :   0000068D;
	68E  :   0000068E;
	68F  :   0000068F;
	690  :   00000690;
	691  :   00000691;
	692  :   00000692;
	693  :   00000693;
	694  :   00000694;
	695  :   00000695;
	696  :   00000696;
	697  :   00000697;
	698  :   00000698;
	699  :   00000699;
	69A  :   0000069A;
	69B  :   0000069B;
	69C  :   0000069C;
	69D  :   0000069D;
	69E  :   0000069E;
	69F  :   0000069F;
	6A0  :   000006A0;
	6A1  :   000006A1;
	6A2  :   000006A2;
	6A3  :   000006A3;
	6A4  :   000006A4;
	6A5  :   000006A5;
	6A6  :   000006A6;
	6A7  :   000006A7;
	6A8  :   000006A8;
	6A9  :   000006A9;
	6AA  :   000006AA;
	6AB  :   000006AB;
	6AC  :   000006AC;
	6AD  :   000006AD;
	6AE  :   000006AE;
	6AF  :   000006AF;
	6B0  :   000006B0;
	6B1  :   000006B1;
	6B2  :   000006B2;
	6B3  :   000006B3;
	6B4  :   000006B4;
	6B5  :   000006B5;
	6B6  :   000006B6;
	6B7  :   000006B7;
	6B8  :   000006B8;
	6B9  :   000006B9;
	6BA  :   000006BA;
	6BB  :   000006BB;
	6BC  :   000006BC;
	6BD  :   000006BD;
	6BE  :   000006BE;
	6BF  :   000006BF;
	6C0  :   000006C0;
	6C1  :   000006C1;
	6C2  :   000006C2;
	6C3  :   000006C3;
	6C4  :   000006C4;
	6C5  :   000006C5;
	6C6  :   000006C6;
	6C7  :   000006C7;
	6C8  :   000006C8;
	6C9  :   000006C9;
	6CA  :   000006CA;
	6CB  :   000006CB;
	6CC  :   000006CC;
	6CD  :   000006CD;
	6CE  :   000006CE;
	6CF  :   000006CF;
	6D0  :   000006D0;
	6D1  :   000006D1;
	6D2  :   000006D2;
	6D3  :   000006D3;
	6D4  :   000006D4;
	6D5  :   000006D5;
	6D6  :   000006D6;
	6D7  :   000006D7;
	6D8  :   000006D8;
	6D9  :   000006D9;
	6DA  :   000006DA;
	6DB  :   000006DB;
	6DC  :   000006DC;
	6DD  :   000006DD;
	6DE  :   000006DE;
	6DF  :   000006DF;
	6E0  :   000006E0;
	6E1  :   000006E1;
	6E2  :   000006E2;
	6E3  :   000006E3;
	6E4  :   000006E4;
	6E5  :   000006E5;
	6E6  :   000006E6;
	6E7  :   000006E7;
	6E8  :   000006E8;
	6E9  :   000006E9;
	6EA  :   000006EA;
	6EB  :   000006EB;
	6EC  :   000006EC;
	6ED  :   000006ED;
	6EE  :   000006EE;
	6EF  :   000006EF;
	6F0  :   000006F0;
	6F1  :   000006F1;
	6F2  :   000006F2;
	6F3  :   000006F3;
	6F4  :   000006F4;
	6F5  :   000006F5;
	6F6  :   000006F6;
	6F7  :   000006F7;
	6F8  :   000006F8;
	6F9  :   000006F9;
	6FA  :   000006FA;
	6FB  :   000006FB;
	6FC  :   000006FC;
	6FD  :   000006FD;
	6FE  :   000006FE;
	6FF  :   000006FF;
	700  :   00000700;
	701  :   00000701;
	702  :   00000702;
	703  :   00000703;
	704  :   00000704;
	705  :   00000705;
	706  :   00000706;
	707  :   00000707;
	708  :   00000708;
	709  :   00000709;
	70A  :   0000070A;
	70B  :   0000070B;
	70C  :   0000070C;
	70D  :   0000070D;
	70E  :   0000070E;
	70F  :   0000070F;
	710  :   00000710;
	711  :   00000711;
	712  :   00000712;
	713  :   00000713;
	714  :   00000714;
	715  :   00000715;
	716  :   00000716;
	717  :   00000717;
	718  :   00000718;
	719  :   00000719;
	71A  :   0000071A;
	71B  :   0000071B;
	71C  :   0000071C;
	71D  :   0000071D;
	71E  :   0000071E;
	71F  :   0000071F;
	720  :   00000720;
	721  :   00000721;
	722  :   00000722;
	723  :   00000723;
	724  :   00000724;
	725  :   00000725;
	726  :   00000726;
	727  :   00000727;
	728  :   00000728;
	729  :   00000729;
	72A  :   0000072A;
	72B  :   0000072B;
	72C  :   0000072C;
	72D  :   0000072D;
	72E  :   0000072E;
	72F  :   0000072F;
	730  :   00000730;
	731  :   00000731;
	732  :   00000732;
	733  :   00000733;
	734  :   00000734;
	735  :   00000735;
	736  :   00000736;
	737  :   00000737;
	738  :   00000738;
	739  :   00000739;
	73A  :   0000073A;
	73B  :   0000073B;
	73C  :   0000073C;
	73D  :   0000073D;
	73E  :   0000073E;
	73F  :   0000073F;
	740  :   00000740;
	741  :   00000741;
	742  :   00000742;
	743  :   00000743;
	744  :   00000744;
	745  :   00000745;
	746  :   00000746;
	747  :   00000747;
	748  :   00000748;
	749  :   00000749;
	74A  :   0000074A;
	74B  :   0000074B;
	74C  :   0000074C;
	74D  :   0000074D;
	74E  :   0000074E;
	74F  :   0000074F;
	750  :   00000750;
	751  :   00000751;
	752  :   00000752;
	753  :   00000753;
	754  :   00000754;
	755  :   00000755;
	756  :   00000756;
	757  :   00000757;
	758  :   00000758;
	759  :   00000759;
	75A  :   0000075A;
	75B  :   0000075B;
	75C  :   0000075C;
	75D  :   0000075D;
	75E  :   0000075E;
	75F  :   0000075F;
	760  :   00000760;
	761  :   00000761;
	762  :   00000762;
	763  :   00000763;
	764  :   00000764;
	765  :   00000765;
	766  :   00000766;
	767  :   00000767;
	768  :   00000768;
	769  :   00000769;
	76A  :   0000076A;
	76B  :   0000076B;
	76C  :   0000076C;
	76D  :   0000076D;
	76E  :   0000076E;
	76F  :   0000076F;
	770  :   00000770;
	771  :   00000771;
	772  :   00000772;
	773  :   00000773;
	774  :   00000774;
	775  :   00000775;
	776  :   00000776;
	777  :   00000777;
	778  :   00000778;
	779  :   00000779;
	77A  :   0000077A;
	77B  :   0000077B;
	77C  :   0000077C;
	77D  :   0000077D;
	77E  :   0000077E;
	77F  :   0000077F;
	780  :   00000780;
	781  :   00000781;
	782  :   00000782;
	783  :   00000783;
	784  :   00000784;
	785  :   00000785;
	786  :   00000786;
	787  :   00000787;
	788  :   00000788;
	789  :   00000789;
	78A  :   0000078A;
	78B  :   0000078B;
	78C  :   0000078C;
	78D  :   0000078D;
	78E  :   0000078E;
	78F  :   0000078F;
	790  :   00000790;
	791  :   00000791;
	792  :   00000792;
	793  :   00000793;
	794  :   00000794;
	795  :   00000795;
	796  :   00000796;
	797  :   00000797;
	798  :   00000798;
	799  :   00000799;
	79A  :   0000079A;
	79B  :   0000079B;
	79C  :   0000079C;
	79D  :   0000079D;
	79E  :   0000079E;
	79F  :   0000079F;
	7A0  :   000007A0;
	7A1  :   000007A1;
	7A2  :   000007A2;
	7A3  :   000007A3;
	7A4  :   000007A4;
	7A5  :   000007A5;
	7A6  :   000007A6;
	7A7  :   000007A7;
	7A8  :   000007A8;
	7A9  :   000007A9;
	7AA  :   000007AA;
	7AB  :   000007AB;
	7AC  :   000007AC;
	7AD  :   000007AD;
	7AE  :   000007AE;
	7AF  :   000007AF;
	7B0  :   000007B0;
	7B1  :   000007B1;
	7B2  :   000007B2;
	7B3  :   000007B3;
	7B4  :   000007B4;
	7B5  :   000007B5;
	7B6  :   000007B6;
	7B7  :   000007B7;
	7B8  :   000007B8;
	7B9  :   000007B9;
	7BA  :   000007BA;
	7BB  :   000007BB;
	7BC  :   000007BC;
	7BD  :   000007BD;
	7BE  :   000007BE;
	7BF  :   000007BF;
	7C0  :   000007C0;
	7C1  :   000007C1;
	7C2  :   000007C2;
	7C3  :   000007C3;
	7C4  :   000007C4;
	7C5  :   000007C5;
	7C6  :   000007C6;
	7C7  :   000007C7;
	7C8  :   000007C8;
	7C9  :   000007C9;
	7CA  :   000007CA;
	7CB  :   000007CB;
	7CC  :   000007CC;
	7CD  :   000007CD;
	7CE  :   000007CE;
	7CF  :   000007CF;
	7D0  :   000007D0;
	7D1  :   000007D1;
	7D2  :   000007D2;
	7D3  :   000007D3;
	7D4  :   000007D4;
	7D5  :   000007D5;
	7D6  :   000007D6;
	7D7  :   000007D7;
	7D8  :   000007D8;
	7D9  :   000007D9;
	7DA  :   000007DA;
	7DB  :   000007DB;
	7DC  :   000007DC;
	7DD  :   000007DD;
	7DE  :   000007DE;
	7DF  :   000007DF;
	7E0  :   000007E0;
	7E1  :   000007E1;
	7E2  :   000007E2;
	7E3  :   000007E3;
	7E4  :   000007E4;
	7E5  :   000007E5;
	7E6  :   000007E6;
	7E7  :   000007E7;
	7E8  :   000007E8;
	7E9  :   000007E9;
	7EA  :   000007EA;
	7EB  :   000007EB;
	7EC  :   000007EC;
	7ED  :   000007ED;
	7EE  :   000007EE;
	7EF  :   000007EF;
	7F0  :   000007F0;
	7F1  :   000007F1;
	7F2  :   000007F2;
	7F3  :   000007F3;
	7F4  :   000007F4;
	7F5  :   000007F5;
	7F6  :   000007F6;
	7F7  :   000007F7;
	7F8  :   000007F8;
	7F9  :   000007F9;
	7FA  :   000007FA;
	7FB  :   000007FB;
	7FC  :   000007FC;
	7FD  :   000007FD;
	7FE  :   000007FE;
	7FF  :   000007FF;
END;
