Assembler report for sigma_delta
Wed Nov 29 14:29:17 2023
Quartus II 64-Bit Version 9.1 Build 222 10/21/2009 SJ Full Version


---------------------
; Table of Contents ;
---------------------
  1. Legal Notice
  2. Assembler Summary
  3. Assembler Settings
  4. Assembler Generated Files
  5. Assembler Device Options: C:/workspace/firmware/testbench_mt/sigma_delta/sigma_delta.sof
  6. Assembler Device Options: C:/workspace/firmware/testbench_mt/sigma_delta/sigma_delta.pof
  7. Assembler Messages



----------------
; Legal Notice ;
----------------
Copyright (C) 1991-2009 Altera Corporation
Your use of Altera Corporation's design tools, logic functions 
and other software and tools, and its AMPP partner logic 
functions, and any output files from any of the foregoing 
(including device programming or simulation files), and any 
associated documentation or information are expressly subject 
to the terms and conditions of the Altera Program License 
Subscription Agreement, Altera MegaCore Function License 
Agreement, or other applicable license agreement, including, 
without limitation, that your use is for the sole purpose of 
programming logic devices manufactured by Altera and sold by 
Altera or its authorized distributors.  Please refer to the 
applicable agreement for further details.



+---------------------------------------------------------------+
; Assembler Summary                                             ;
+-----------------------+---------------------------------------+
; Assembler Status      ; Successful - Wed Nov 29 14:29:17 2023 ;
; Revision Name         ; sigma_delta                           ;
; Top-level Entity Name ; sigma_delta                           ;
; Family                ; Stratix II                            ;
; Device                ; EP2S60F1020C5                         ;
+-----------------------+---------------------------------------+


+--------------------------------------------------------------------------------------------------------+
; Assembler Settings                                                                                     ;
+-----------------------------------------------------------------------------+----------+---------------+
; Option                                                                      ; Setting  ; Default Value ;
+-----------------------------------------------------------------------------+----------+---------------+
; Use smart compilation                                                       ; On       ; Off           ;
; Generate compressed bitstreams                                              ; Off      ; On            ;
; Compression mode                                                            ; On       ; Off           ;
; Divide clock frequency by                                                   ; 1.0      ; 1             ;
; Configuration device                                                        ; Epc16    ; Auto          ;
; Auto-restart configuration after error                                      ; Off      ; On            ;
; Enable parallel Assembler and TimeQuest Timing Analyzer during compilation  ; On       ; On            ;
; Enable compact report table                                                 ; Off      ; Off           ;
; Clock source for configuration device                                       ; Internal ; Internal      ;
; Clock frequency of the configuration device                                 ; 10 MHZ   ; 10 MHz        ;
; Auto user code                                                              ; Off      ; Off           ;
; Use configuration device                                                    ; On       ; On            ;
; Configuration device auto user code                                         ; Off      ; Off           ;
; Generate Tabular Text File (.ttf) For Target Device                         ; Off      ; Off           ;
; Generate Raw Binary File (.rbf) For Target Device                           ; Off      ; Off           ;
; Generate Hexadecimal (Intel-Format) Output File (.hexout) for Target Device ; Off      ; Off           ;
; Hexadecimal Output File start address                                       ; 0        ; 0             ;
; Hexadecimal Output File count direction                                     ; Up       ; Up            ;
; Release clears before tri-states                                            ; Off      ; Off           ;
; Maintain Compatibility with All Stratix II MRAM Versions                    ; Off      ; Off           ;
; Use Checkered Pattern as Uninitialized RAM Content                          ; Off      ; Off           ;
; Generate Serial Vector Format File (.svf) for Target Device                 ; Off      ; Off           ;
; Generate a JEDEC STAPL Format File (.jam) for Target Device                 ; Off      ; Off           ;
; Generate a compressed Jam STAPL Byte Code 2.0 File (.jbc) for Target Device ; Off      ; Off           ;
; Generate a compressed Jam STAPL Byte Code 2.0 File (.jbc) for Target Device ; On       ; On            ;
+-----------------------------------------------------------------------------+----------+---------------+


+----------------------------------------------------------------+
; Assembler Generated Files                                      ;
+----------------------------------------------------------------+
; File Name                                                      ;
+----------------------------------------------------------------+
; C:/workspace/firmware/testbench_mt/sigma_delta/sigma_delta.sof ;
; C:/workspace/firmware/testbench_mt/sigma_delta/sigma_delta.pof ;
+----------------------------------------------------------------+


+------------------------------------------------------------------------------------------+
; Assembler Device Options: C:/workspace/firmware/testbench_mt/sigma_delta/sigma_delta.sof ;
+----------------+-------------------------------------------------------------------------+
; Option         ; Setting                                                                 ;
+----------------+-------------------------------------------------------------------------+
; Device         ; EP2S60F1020C5                                                           ;
; JTAG usercode  ; 0xFFFFFFFF                                                              ;
; Checksum       ; 0x00D6871F                                                              ;
+----------------+-------------------------------------------------------------------------+


+------------------------------------------------------------------------------------------+
; Assembler Device Options: C:/workspace/firmware/testbench_mt/sigma_delta/sigma_delta.pof ;
+--------------------+---------------------------------------------------------------------+
; Option             ; Setting                                                             ;
+--------------------+---------------------------------------------------------------------+
; Device             ; EPC16                                                               ;
; JTAG usercode      ; 0xFFFFFFFF                                                          ;
; Checksum           ; 0x16DFA49E                                                          ;
; Compression Ratio  ; 1                                                                   ;
+--------------------+---------------------------------------------------------------------+


+--------------------+
; Assembler Messages ;
+--------------------+
Info: *******************************************************************
Info: Running Quartus II 64-Bit Assembler
    Info: Version 9.1 Build 222 10/21/2009 SJ Full Version
    Info: Processing started: Wed Nov 29 14:29:14 2023
Info: Command: quartus_asm --read_settings_files=off --write_settings_files=off sigma_delta -c sigma_delta
Info: Writing out detailed assembly data for power analysis
Info: Assembler is generating device programming files
Info: Quartus II 64-Bit Assembler was successful. 0 errors, 0 warnings
    Info: Peak virtual memory: 4566 megabytes
    Info: Processing ended: Wed Nov 29 14:29:17 2023
    Info: Elapsed time: 00:00:03
    Info: Total CPU time (on all processors): 00:00:03


