<session sof_file="" top_level_entity="sigma_delta">
  <display_tree gui_logging_enabled="0">
    <display_branch instance="auto_signaltap_0" signal_set="USE_GLOBAL_TEMP" trigger="USE_GLOBAL_TEMP"/>
  </display_tree>
  <global_info>
    <single attribute="active instance" value="0"/>
    <single attribute="lock mode" value="36110"/>
    <multi attribute="window position" size="9" value="1920,978,398,124,356,50,124,0,50"/>
  </global_info>
  <instance entity_name="sld_signaltap" is_auto_node="yes" name="auto_signaltap_0" source_file="sld_signaltap.vhd">
    <node_ip_info instance_id="0" mfg_id="110" node_id="0" version="6"/>
    <position_info>
      <single attribute="active tab" value="1"/>
    </position_info>
    <signal_set global_temp="1" name="signal_set: 2023/11/29 13:59:30  #0">
      <clock name="The_clock" polarity="posedge" tap_mode="classic"/>
      <config ram_type="M4K" reserved_data_nodes="0" reserved_storage_qualifier_nodes="0" reserved_trigger_nodes="0" sample_depth="128" trigger_in_enable="no" trigger_out_enable="no"/>
      <top_entity/>
      <signal_vec>
        <trigger_input_vec>
          <wire name="G_RXD_Buffered[0]" tap_mode="classic" type="combinatorial"/>
          <wire name="G_RXD_Buffered[10]" tap_mode="classic" type="combinatorial"/>
          <wire name="G_RXD_Buffered[11]" tap_mode="classic" type="combinatorial"/>
          <wire name="G_RXD_Buffered[12]" tap_mode="classic" type="combinatorial"/>
          <wire name="G_RXD_Buffered[13]" tap_mode="classic" type="combinatorial"/>
          <wire name="G_RXD_Buffered[14]" tap_mode="classic" type="combinatorial"/>
          <wire name="G_RXD_Buffered[15]" tap_mode="classic" type="combinatorial"/>
          <wire name="G_RXD_Buffered[1]" tap_mode="classic" type="combinatorial"/>
          <wire name="G_RXD_Buffered[2]" tap_mode="classic" type="combinatorial"/>
          <wire name="G_RXD_Buffered[3]" tap_mode="classic" type="combinatorial"/>
          <wire name="G_RXD_Buffered[4]" tap_mode="classic" type="combinatorial"/>
          <wire name="G_RXD_Buffered[5]" tap_mode="classic" type="combinatorial"/>
          <wire name="G_RXD_Buffered[6]" tap_mode="classic" type="combinatorial"/>
          <wire name="G_RXD_Buffered[7]" tap_mode="classic" type="combinatorial"/>
          <wire name="G_RXD_Buffered[8]" tap_mode="classic" type="combinatorial"/>
          <wire name="G_RXD_Buffered[9]" tap_mode="classic" type="combinatorial"/>
          <wire name="HTXD[0]" tap_mode="classic" type="output pin"/>
          <wire name="HTXD[10]" tap_mode="classic" type="output pin"/>
          <wire name="HTXD[11]" tap_mode="classic" type="output pin"/>
          <wire name="HTXD[12]" tap_mode="classic" type="output pin"/>
          <wire name="HTXD[13]" tap_mode="classic" type="output pin"/>
          <wire name="HTXD[14]" tap_mode="classic" type="output pin"/>
          <wire name="HTXD[15]" tap_mode="classic" type="output pin"/>
          <wire name="HTXD[1]" tap_mode="classic" type="output pin"/>
          <wire name="HTXD[2]" tap_mode="classic" type="output pin"/>
          <wire name="HTXD[3]" tap_mode="classic" type="output pin"/>
          <wire name="HTXD[4]" tap_mode="classic" type="output pin"/>
          <wire name="HTXD[5]" tap_mode="classic" type="output pin"/>
          <wire name="HTXD[6]" tap_mode="classic" type="output pin"/>
          <wire name="HTXD[7]" tap_mode="classic" type="output pin"/>
          <wire name="HTXD[8]" tap_mode="classic" type="output pin"/>
          <wire name="HTXD[9]" tap_mode="classic" type="output pin"/>
          <wire name="H_RXD_Buffered[0]" tap_mode="classic" type="combinatorial"/>
          <wire name="H_RXD_Buffered[10]" tap_mode="classic" type="combinatorial"/>
          <wire name="H_RXD_Buffered[11]" tap_mode="classic" type="combinatorial"/>
          <wire name="H_RXD_Buffered[12]" tap_mode="classic" type="combinatorial"/>
          <wire name="H_RXD_Buffered[13]" tap_mode="classic" type="combinatorial"/>
          <wire name="H_RXD_Buffered[14]" tap_mode="classic" type="combinatorial"/>
          <wire name="H_RXD_Buffered[15]" tap_mode="classic" type="combinatorial"/>
          <wire name="H_RXD_Buffered[1]" tap_mode="classic" type="combinatorial"/>
          <wire name="H_RXD_Buffered[2]" tap_mode="classic" type="combinatorial"/>
          <wire name="H_RXD_Buffered[3]" tap_mode="classic" type="combinatorial"/>
          <wire name="H_RXD_Buffered[4]" tap_mode="classic" type="combinatorial"/>
          <wire name="H_RXD_Buffered[5]" tap_mode="classic" type="combinatorial"/>
          <wire name="H_RXD_Buffered[6]" tap_mode="classic" type="combinatorial"/>
          <wire name="H_RXD_Buffered[7]" tap_mode="classic" type="combinatorial"/>
          <wire name="H_RXD_Buffered[8]" tap_mode="classic" type="combinatorial"/>
          <wire name="H_RXD_Buffered[9]" tap_mode="classic" type="combinatorial"/>
          <wire name="RXD[0]" tap_mode="classic" type="input pin"/>
          <wire name="RXD[10]" tap_mode="classic" type="input pin"/>
          <wire name="RXD[11]" tap_mode="classic" type="input pin"/>
          <wire name="RXD[12]" tap_mode="classic" type="input pin"/>
          <wire name="RXD[13]" tap_mode="classic" type="input pin"/>
          <wire name="RXD[14]" tap_mode="classic" type="input pin"/>
          <wire name="RXD[15]" tap_mode="classic" type="input pin"/>
          <wire name="RXD[1]" tap_mode="classic" type="input pin"/>
          <wire name="RXD[2]" tap_mode="classic" type="input pin"/>
          <wire name="RXD[3]" tap_mode="classic" type="input pin"/>
          <wire name="RXD[4]" tap_mode="classic" type="input pin"/>
          <wire name="RXD[5]" tap_mode="classic" type="input pin"/>
          <wire name="RXD[6]" tap_mode="classic" type="input pin"/>
          <wire name="RXD[7]" tap_mode="classic" type="input pin"/>
          <wire name="RXD[8]" tap_mode="classic" type="input pin"/>
          <wire name="RXD[9]" tap_mode="classic" type="input pin"/>
          <wire name="TXD[0]" tap_mode="classic" type="output pin"/>
          <wire name="TXD[10]" tap_mode="classic" type="output pin"/>
          <wire name="TXD[11]" tap_mode="classic" type="output pin"/>
          <wire name="TXD[12]" tap_mode="classic" type="output pin"/>
          <wire name="TXD[13]" tap_mode="classic" type="output pin"/>
          <wire name="TXD[14]" tap_mode="classic" type="output pin"/>
          <wire name="TXD[15]" tap_mode="classic" type="output pin"/>
          <wire name="TXD[1]" tap_mode="classic" type="output pin"/>
          <wire name="TXD[2]" tap_mode="classic" type="output pin"/>
          <wire name="TXD[3]" tap_mode="classic" type="output pin"/>
          <wire name="TXD[4]" tap_mode="classic" type="output pin"/>
          <wire name="TXD[5]" tap_mode="classic" type="output pin"/>
          <wire name="TXD[6]" tap_mode="classic" type="output pin"/>
          <wire name="TXD[7]" tap_mode="classic" type="output pin"/>
          <wire name="TXD[8]" tap_mode="classic" type="output pin"/>
          <wire name="TXD[9]" tap_mode="classic" type="output pin"/>
          <wire name="mux4_16:inst71|result[0]" tap_mode="classic" type="combinatorial"/>
          <wire name="mux4_16:inst71|result[10]" tap_mode="classic" type="combinatorial"/>
          <wire name="mux4_16:inst71|result[11]" tap_mode="classic" type="combinatorial"/>
          <wire name="mux4_16:inst71|result[12]" tap_mode="classic" type="combinatorial"/>
          <wire name="mux4_16:inst71|result[13]" tap_mode="classic" type="combinatorial"/>
          <wire name="mux4_16:inst71|result[14]" tap_mode="classic" type="combinatorial"/>
          <wire name="mux4_16:inst71|result[15]" tap_mode="classic" type="combinatorial"/>
          <wire name="mux4_16:inst71|result[1]" tap_mode="classic" type="combinatorial"/>
          <wire name="mux4_16:inst71|result[2]" tap_mode="classic" type="combinatorial"/>
          <wire name="mux4_16:inst71|result[3]" tap_mode="classic" type="combinatorial"/>
          <wire name="mux4_16:inst71|result[4]" tap_mode="classic" type="combinatorial"/>
          <wire name="mux4_16:inst71|result[5]" tap_mode="classic" type="combinatorial"/>
          <wire name="mux4_16:inst71|result[6]" tap_mode="classic" type="combinatorial"/>
          <wire name="mux4_16:inst71|result[7]" tap_mode="classic" type="combinatorial"/>
          <wire name="mux4_16:inst71|result[8]" tap_mode="classic" type="combinatorial"/>
          <wire name="mux4_16:inst71|result[9]" tap_mode="classic" type="combinatorial"/>
          <wire name="mux4_16:inst71|sel[0]" tap_mode="classic" type="combinatorial"/>
          <wire name="mux4_16:inst71|sel[1]" tap_mode="classic" type="combinatorial"/>
        </trigger_input_vec>
        <data_input_vec>
          <wire name="G_RXD_Buffered[0]" tap_mode="classic" type="combinatorial"/>
          <wire name="G_RXD_Buffered[10]" tap_mode="classic" type="combinatorial"/>
          <wire name="G_RXD_Buffered[11]" tap_mode="classic" type="combinatorial"/>
          <wire name="G_RXD_Buffered[12]" tap_mode="classic" type="combinatorial"/>
          <wire name="G_RXD_Buffered[13]" tap_mode="classic" type="combinatorial"/>
          <wire name="G_RXD_Buffered[14]" tap_mode="classic" type="combinatorial"/>
          <wire name="G_RXD_Buffered[15]" tap_mode="classic" type="combinatorial"/>
          <wire name="G_RXD_Buffered[1]" tap_mode="classic" type="combinatorial"/>
          <wire name="G_RXD_Buffered[2]" tap_mode="classic" type="combinatorial"/>
          <wire name="G_RXD_Buffered[3]" tap_mode="classic" type="combinatorial"/>
          <wire name="G_RXD_Buffered[4]" tap_mode="classic" type="combinatorial"/>
          <wire name="G_RXD_Buffered[5]" tap_mode="classic" type="combinatorial"/>
          <wire name="G_RXD_Buffered[6]" tap_mode="classic" type="combinatorial"/>
          <wire name="G_RXD_Buffered[7]" tap_mode="classic" type="combinatorial"/>
          <wire name="G_RXD_Buffered[8]" tap_mode="classic" type="combinatorial"/>
          <wire name="G_RXD_Buffered[9]" tap_mode="classic" type="combinatorial"/>
          <wire name="HTXD[0]" tap_mode="classic" type="output pin"/>
          <wire name="HTXD[10]" tap_mode="classic" type="output pin"/>
          <wire name="HTXD[11]" tap_mode="classic" type="output pin"/>
          <wire name="HTXD[12]" tap_mode="classic" type="output pin"/>
          <wire name="HTXD[13]" tap_mode="classic" type="output pin"/>
          <wire name="HTXD[14]" tap_mode="classic" type="output pin"/>
          <wire name="HTXD[15]" tap_mode="classic" type="output pin"/>
          <wire name="HTXD[1]" tap_mode="classic" type="output pin"/>
          <wire name="HTXD[2]" tap_mode="classic" type="output pin"/>
          <wire name="HTXD[3]" tap_mode="classic" type="output pin"/>
          <wire name="HTXD[4]" tap_mode="classic" type="output pin"/>
          <wire name="HTXD[5]" tap_mode="classic" type="output pin"/>
          <wire name="HTXD[6]" tap_mode="classic" type="output pin"/>
          <wire name="HTXD[7]" tap_mode="classic" type="output pin"/>
          <wire name="HTXD[8]" tap_mode="classic" type="output pin"/>
          <wire name="HTXD[9]" tap_mode="classic" type="output pin"/>
          <wire name="H_RXD_Buffered[0]" tap_mode="classic" type="combinatorial"/>
          <wire name="H_RXD_Buffered[10]" tap_mode="classic" type="combinatorial"/>
          <wire name="H_RXD_Buffered[11]" tap_mode="classic" type="combinatorial"/>
          <wire name="H_RXD_Buffered[12]" tap_mode="classic" type="combinatorial"/>
          <wire name="H_RXD_Buffered[13]" tap_mode="classic" type="combinatorial"/>
          <wire name="H_RXD_Buffered[14]" tap_mode="classic" type="combinatorial"/>
          <wire name="H_RXD_Buffered[15]" tap_mode="classic" type="combinatorial"/>
          <wire name="H_RXD_Buffered[1]" tap_mode="classic" type="combinatorial"/>
          <wire name="H_RXD_Buffered[2]" tap_mode="classic" type="combinatorial"/>
          <wire name="H_RXD_Buffered[3]" tap_mode="classic" type="combinatorial"/>
          <wire name="H_RXD_Buffered[4]" tap_mode="classic" type="combinatorial"/>
          <wire name="H_RXD_Buffered[5]" tap_mode="classic" type="combinatorial"/>
          <wire name="H_RXD_Buffered[6]" tap_mode="classic" type="combinatorial"/>
          <wire name="H_RXD_Buffered[7]" tap_mode="classic" type="combinatorial"/>
          <wire name="H_RXD_Buffered[8]" tap_mode="classic" type="combinatorial"/>
          <wire name="H_RXD_Buffered[9]" tap_mode="classic" type="combinatorial"/>
          <wire name="RXD[0]" tap_mode="classic" type="input pin"/>
          <wire name="RXD[10]" tap_mode="classic" type="input pin"/>
          <wire name="RXD[11]" tap_mode="classic" type="input pin"/>
          <wire name="RXD[12]" tap_mode="classic" type="input pin"/>
          <wire name="RXD[13]" tap_mode="classic" type="input pin"/>
          <wire name="RXD[14]" tap_mode="classic" type="input pin"/>
          <wire name="RXD[15]" tap_mode="classic" type="input pin"/>
          <wire name="RXD[1]" tap_mode="classic" type="input pin"/>
          <wire name="RXD[2]" tap_mode="classic" type="input pin"/>
          <wire name="RXD[3]" tap_mode="classic" type="input pin"/>
          <wire name="RXD[4]" tap_mode="classic" type="input pin"/>
          <wire name="RXD[5]" tap_mode="classic" type="input pin"/>
          <wire name="RXD[6]" tap_mode="classic" type="input pin"/>
          <wire name="RXD[7]" tap_mode="classic" type="input pin"/>
          <wire name="RXD[8]" tap_mode="classic" type="input pin"/>
          <wire name="RXD[9]" tap_mode="classic" type="input pin"/>
          <wire name="TXD[0]" tap_mode="classic" type="output pin"/>
          <wire name="TXD[10]" tap_mode="classic" type="output pin"/>
          <wire name="TXD[11]" tap_mode="classic" type="output pin"/>
          <wire name="TXD[12]" tap_mode="classic" type="output pin"/>
          <wire name="TXD[13]" tap_mode="classic" type="output pin"/>
          <wire name="TXD[14]" tap_mode="classic" type="output pin"/>
          <wire name="TXD[15]" tap_mode="classic" type="output pin"/>
          <wire name="TXD[1]" tap_mode="classic" type="output pin"/>
          <wire name="TXD[2]" tap_mode="classic" type="output pin"/>
          <wire name="TXD[3]" tap_mode="classic" type="output pin"/>
          <wire name="TXD[4]" tap_mode="classic" type="output pin"/>
          <wire name="TXD[5]" tap_mode="classic" type="output pin"/>
          <wire name="TXD[6]" tap_mode="classic" type="output pin"/>
          <wire name="TXD[7]" tap_mode="classic" type="output pin"/>
          <wire name="TXD[8]" tap_mode="classic" type="output pin"/>
          <wire name="TXD[9]" tap_mode="classic" type="output pin"/>
          <wire name="mux4_16:inst71|result[0]" tap_mode="classic" type="combinatorial"/>
          <wire name="mux4_16:inst71|result[10]" tap_mode="classic" type="combinatorial"/>
          <wire name="mux4_16:inst71|result[11]" tap_mode="classic" type="combinatorial"/>
          <wire name="mux4_16:inst71|result[12]" tap_mode="classic" type="combinatorial"/>
          <wire name="mux4_16:inst71|result[13]" tap_mode="classic" type="combinatorial"/>
          <wire name="mux4_16:inst71|result[14]" tap_mode="classic" type="combinatorial"/>
          <wire name="mux4_16:inst71|result[15]" tap_mode="classic" type="combinatorial"/>
          <wire name="mux4_16:inst71|result[1]" tap_mode="classic" type="combinatorial"/>
          <wire name="mux4_16:inst71|result[2]" tap_mode="classic" type="combinatorial"/>
          <wire name="mux4_16:inst71|result[3]" tap_mode="classic" type="combinatorial"/>
          <wire name="mux4_16:inst71|result[4]" tap_mode="classic" type="combinatorial"/>
          <wire name="mux4_16:inst71|result[5]" tap_mode="classic" type="combinatorial"/>
          <wire name="mux4_16:inst71|result[6]" tap_mode="classic" type="combinatorial"/>
          <wire name="mux4_16:inst71|result[7]" tap_mode="classic" type="combinatorial"/>
          <wire name="mux4_16:inst71|result[8]" tap_mode="classic" type="combinatorial"/>
          <wire name="mux4_16:inst71|result[9]" tap_mode="classic" type="combinatorial"/>
          <wire name="mux4_16:inst71|sel[0]" tap_mode="classic" type="combinatorial"/>
          <wire name="mux4_16:inst71|sel[1]" tap_mode="classic" type="combinatorial"/>
        </data_input_vec>
        <storage_qualifier_input_vec>
          <wire name="G_RXD_Buffered[0]" tap_mode="classic" type="combinatorial"/>
          <wire name="G_RXD_Buffered[10]" tap_mode="classic" type="combinatorial"/>
          <wire name="G_RXD_Buffered[11]" tap_mode="classic" type="combinatorial"/>
          <wire name="G_RXD_Buffered[12]" tap_mode="classic" type="combinatorial"/>
          <wire name="G_RXD_Buffered[13]" tap_mode="classic" type="combinatorial"/>
          <wire name="G_RXD_Buffered[14]" tap_mode="classic" type="combinatorial"/>
          <wire name="G_RXD_Buffered[15]" tap_mode="classic" type="combinatorial"/>
          <wire name="G_RXD_Buffered[1]" tap_mode="classic" type="combinatorial"/>
          <wire name="G_RXD_Buffered[2]" tap_mode="classic" type="combinatorial"/>
          <wire name="G_RXD_Buffered[3]" tap_mode="classic" type="combinatorial"/>
          <wire name="G_RXD_Buffered[4]" tap_mode="classic" type="combinatorial"/>
          <wire name="G_RXD_Buffered[5]" tap_mode="classic" type="combinatorial"/>
          <wire name="G_RXD_Buffered[6]" tap_mode="classic" type="combinatorial"/>
          <wire name="G_RXD_Buffered[7]" tap_mode="classic" type="combinatorial"/>
          <wire name="G_RXD_Buffered[8]" tap_mode="classic" type="combinatorial"/>
          <wire name="G_RXD_Buffered[9]" tap_mode="classic" type="combinatorial"/>
          <wire name="HTXD[0]" tap_mode="classic" type="output pin"/>
          <wire name="HTXD[10]" tap_mode="classic" type="output pin"/>
          <wire name="HTXD[11]" tap_mode="classic" type="output pin"/>
          <wire name="HTXD[12]" tap_mode="classic" type="output pin"/>
          <wire name="HTXD[13]" tap_mode="classic" type="output pin"/>
          <wire name="HTXD[14]" tap_mode="classic" type="output pin"/>
          <wire name="HTXD[15]" tap_mode="classic" type="output pin"/>
          <wire name="HTXD[1]" tap_mode="classic" type="output pin"/>
          <wire name="HTXD[2]" tap_mode="classic" type="output pin"/>
          <wire name="HTXD[3]" tap_mode="classic" type="output pin"/>
          <wire name="HTXD[4]" tap_mode="classic" type="output pin"/>
          <wire name="HTXD[5]" tap_mode="classic" type="output pin"/>
          <wire name="HTXD[6]" tap_mode="classic" type="output pin"/>
          <wire name="HTXD[7]" tap_mode="classic" type="output pin"/>
          <wire name="HTXD[8]" tap_mode="classic" type="output pin"/>
          <wire name="HTXD[9]" tap_mode="classic" type="output pin"/>
          <wire name="H_RXD_Buffered[0]" tap_mode="classic" type="combinatorial"/>
          <wire name="H_RXD_Buffered[10]" tap_mode="classic" type="combinatorial"/>
          <wire name="H_RXD_Buffered[11]" tap_mode="classic" type="combinatorial"/>
          <wire name="H_RXD_Buffered[12]" tap_mode="classic" type="combinatorial"/>
          <wire name="H_RXD_Buffered[13]" tap_mode="classic" type="combinatorial"/>
          <wire name="H_RXD_Buffered[14]" tap_mode="classic" type="combinatorial"/>
          <wire name="H_RXD_Buffered[15]" tap_mode="classic" type="combinatorial"/>
          <wire name="H_RXD_Buffered[1]" tap_mode="classic" type="combinatorial"/>
          <wire name="H_RXD_Buffered[2]" tap_mode="classic" type="combinatorial"/>
          <wire name="H_RXD_Buffered[3]" tap_mode="classic" type="combinatorial"/>
          <wire name="H_RXD_Buffered[4]" tap_mode="classic" type="combinatorial"/>
          <wire name="H_RXD_Buffered[5]" tap_mode="classic" type="combinatorial"/>
          <wire name="H_RXD_Buffered[6]" tap_mode="classic" type="combinatorial"/>
          <wire name="H_RXD_Buffered[7]" tap_mode="classic" type="combinatorial"/>
          <wire name="H_RXD_Buffered[8]" tap_mode="classic" type="combinatorial"/>
          <wire name="H_RXD_Buffered[9]" tap_mode="classic" type="combinatorial"/>
          <wire name="RXD[0]" tap_mode="classic" type="input pin"/>
          <wire name="RXD[10]" tap_mode="classic" type="input pin"/>
          <wire name="RXD[11]" tap_mode="classic" type="input pin"/>
          <wire name="RXD[12]" tap_mode="classic" type="input pin"/>
          <wire name="RXD[13]" tap_mode="classic" type="input pin"/>
          <wire name="RXD[14]" tap_mode="classic" type="input pin"/>
          <wire name="RXD[15]" tap_mode="classic" type="input pin"/>
          <wire name="RXD[1]" tap_mode="classic" type="input pin"/>
          <wire name="RXD[2]" tap_mode="classic" type="input pin"/>
          <wire name="RXD[3]" tap_mode="classic" type="input pin"/>
          <wire name="RXD[4]" tap_mode="classic" type="input pin"/>
          <wire name="RXD[5]" tap_mode="classic" type="input pin"/>
          <wire name="RXD[6]" tap_mode="classic" type="input pin"/>
          <wire name="RXD[7]" tap_mode="classic" type="input pin"/>
          <wire name="RXD[8]" tap_mode="classic" type="input pin"/>
          <wire name="RXD[9]" tap_mode="classic" type="input pin"/>
          <wire name="TXD[0]" tap_mode="classic" type="output pin"/>
          <wire name="TXD[10]" tap_mode="classic" type="output pin"/>
          <wire name="TXD[11]" tap_mode="classic" type="output pin"/>
          <wire name="TXD[12]" tap_mode="classic" type="output pin"/>
          <wire name="TXD[13]" tap_mode="classic" type="output pin"/>
          <wire name="TXD[14]" tap_mode="classic" type="output pin"/>
          <wire name="TXD[15]" tap_mode="classic" type="output pin"/>
          <wire name="TXD[1]" tap_mode="classic" type="output pin"/>
          <wire name="TXD[2]" tap_mode="classic" type="output pin"/>
          <wire name="TXD[3]" tap_mode="classic" type="output pin"/>
          <wire name="TXD[4]" tap_mode="classic" type="output pin"/>
          <wire name="TXD[5]" tap_mode="classic" type="output pin"/>
          <wire name="TXD[6]" tap_mode="classic" type="output pin"/>
          <wire name="TXD[7]" tap_mode="classic" type="output pin"/>
          <wire name="TXD[8]" tap_mode="classic" type="output pin"/>
          <wire name="TXD[9]" tap_mode="classic" type="output pin"/>
          <wire name="mux4_16:inst71|result[0]" tap_mode="classic" type="combinatorial"/>
          <wire name="mux4_16:inst71|result[10]" tap_mode="classic" type="combinatorial"/>
          <wire name="mux4_16:inst71|result[11]" tap_mode="classic" type="combinatorial"/>
          <wire name="mux4_16:inst71|result[12]" tap_mode="classic" type="combinatorial"/>
          <wire name="mux4_16:inst71|result[13]" tap_mode="classic" type="combinatorial"/>
          <wire name="mux4_16:inst71|result[14]" tap_mode="classic" type="combinatorial"/>
          <wire name="mux4_16:inst71|result[15]" tap_mode="classic" type="combinatorial"/>
          <wire name="mux4_16:inst71|result[1]" tap_mode="classic" type="combinatorial"/>
          <wire name="mux4_16:inst71|result[2]" tap_mode="classic" type="combinatorial"/>
          <wire name="mux4_16:inst71|result[3]" tap_mode="classic" type="combinatorial"/>
          <wire name="mux4_16:inst71|result[4]" tap_mode="classic" type="combinatorial"/>
          <wire name="mux4_16:inst71|result[5]" tap_mode="classic" type="combinatorial"/>
          <wire name="mux4_16:inst71|result[6]" tap_mode="classic" type="combinatorial"/>
          <wire name="mux4_16:inst71|result[7]" tap_mode="classic" type="combinatorial"/>
          <wire name="mux4_16:inst71|result[8]" tap_mode="classic" type="combinatorial"/>
          <wire name="mux4_16:inst71|result[9]" tap_mode="classic" type="combinatorial"/>
          <wire name="mux4_16:inst71|sel[0]" tap_mode="classic" type="combinatorial"/>
          <wire name="mux4_16:inst71|sel[1]" tap_mode="classic" type="combinatorial"/>
        </storage_qualifier_input_vec>
      </signal_vec>
      <presentation>
        <data_view>
          <bus is_signal_inverted="no" link="all" name="G_RXD_Buffered" order="lsb_to_msb" radix="hex" state="collapse" type="combinatorial">
            <net is_signal_inverted="no" name="G_RXD_Buffered[0]"/>
            <net is_signal_inverted="no" name="G_RXD_Buffered[1]"/>
            <net is_signal_inverted="no" name="G_RXD_Buffered[2]"/>
            <net is_signal_inverted="no" name="G_RXD_Buffered[3]"/>
            <net is_signal_inverted="no" name="G_RXD_Buffered[4]"/>
            <net is_signal_inverted="no" name="G_RXD_Buffered[5]"/>
            <net is_signal_inverted="no" name="G_RXD_Buffered[6]"/>
            <net is_signal_inverted="no" name="G_RXD_Buffered[7]"/>
            <net is_signal_inverted="no" name="G_RXD_Buffered[8]"/>
            <net is_signal_inverted="no" name="G_RXD_Buffered[9]"/>
            <net is_signal_inverted="no" name="G_RXD_Buffered[10]"/>
            <net is_signal_inverted="no" name="G_RXD_Buffered[11]"/>
            <net is_signal_inverted="no" name="G_RXD_Buffered[12]"/>
            <net is_signal_inverted="no" name="G_RXD_Buffered[13]"/>
            <net is_signal_inverted="no" name="G_RXD_Buffered[14]"/>
            <net is_signal_inverted="no" name="G_RXD_Buffered[15]"/>
          </bus>
          <bus is_signal_inverted="no" link="all" name="H_RXD_Buffered" order="lsb_to_msb" radix="hex" state="collapse" type="combinatorial">
            <net is_signal_inverted="no" name="H_RXD_Buffered[0]"/>
            <net is_signal_inverted="no" name="H_RXD_Buffered[1]"/>
            <net is_signal_inverted="no" name="H_RXD_Buffered[2]"/>
            <net is_signal_inverted="no" name="H_RXD_Buffered[3]"/>
            <net is_signal_inverted="no" name="H_RXD_Buffered[4]"/>
            <net is_signal_inverted="no" name="H_RXD_Buffered[5]"/>
            <net is_signal_inverted="no" name="H_RXD_Buffered[6]"/>
            <net is_signal_inverted="no" name="H_RXD_Buffered[7]"/>
            <net is_signal_inverted="no" name="H_RXD_Buffered[8]"/>
            <net is_signal_inverted="no" name="H_RXD_Buffered[9]"/>
            <net is_signal_inverted="no" name="H_RXD_Buffered[10]"/>
            <net is_signal_inverted="no" name="H_RXD_Buffered[11]"/>
            <net is_signal_inverted="no" name="H_RXD_Buffered[12]"/>
            <net is_signal_inverted="no" name="H_RXD_Buffered[13]"/>
            <net is_signal_inverted="no" name="H_RXD_Buffered[14]"/>
            <net is_signal_inverted="no" name="H_RXD_Buffered[15]"/>
          </bus>
          <bus is_signal_inverted="no" link="all" name="HTXD" order="lsb_to_msb" radix="hex" state="collapse" type="output pin">
            <net is_signal_inverted="no" name="HTXD[0]"/>
            <net is_signal_inverted="no" name="HTXD[1]"/>
            <net is_signal_inverted="no" name="HTXD[2]"/>
            <net is_signal_inverted="no" name="HTXD[3]"/>
            <net is_signal_inverted="no" name="HTXD[4]"/>
            <net is_signal_inverted="no" name="HTXD[5]"/>
            <net is_signal_inverted="no" name="HTXD[6]"/>
            <net is_signal_inverted="no" name="HTXD[7]"/>
            <net is_signal_inverted="no" name="HTXD[8]"/>
            <net is_signal_inverted="no" name="HTXD[9]"/>
            <net is_signal_inverted="no" name="HTXD[10]"/>
            <net is_signal_inverted="no" name="HTXD[11]"/>
            <net is_signal_inverted="no" name="HTXD[12]"/>
            <net is_signal_inverted="no" name="HTXD[13]"/>
            <net is_signal_inverted="no" name="HTXD[14]"/>
            <net is_signal_inverted="no" name="HTXD[15]"/>
          </bus>
          <bus is_signal_inverted="no" link="all" name="TXD" order="lsb_to_msb" radix="hex" state="collapse" type="output pin">
            <net is_signal_inverted="no" name="TXD[0]"/>
            <net is_signal_inverted="no" name="TXD[1]"/>
            <net is_signal_inverted="no" name="TXD[2]"/>
            <net is_signal_inverted="no" name="TXD[3]"/>
            <net is_signal_inverted="no" name="TXD[4]"/>
            <net is_signal_inverted="no" name="TXD[5]"/>
            <net is_signal_inverted="no" name="TXD[6]"/>
            <net is_signal_inverted="no" name="TXD[7]"/>
            <net is_signal_inverted="no" name="TXD[8]"/>
            <net is_signal_inverted="no" name="TXD[9]"/>
            <net is_signal_inverted="no" name="TXD[10]"/>
            <net is_signal_inverted="no" name="TXD[11]"/>
            <net is_signal_inverted="no" name="TXD[12]"/>
            <net is_signal_inverted="no" name="TXD[13]"/>
            <net is_signal_inverted="no" name="TXD[14]"/>
            <net is_signal_inverted="no" name="TXD[15]"/>
          </bus>
          <bus is_signal_inverted="no" link="all" name="RXD" order="lsb_to_msb" radix="hex" state="collapse" type="input pin">
            <net is_signal_inverted="no" name="RXD[0]"/>
            <net is_signal_inverted="no" name="RXD[1]"/>
            <net is_signal_inverted="no" name="RXD[2]"/>
            <net is_signal_inverted="no" name="RXD[3]"/>
            <net is_signal_inverted="no" name="RXD[4]"/>
            <net is_signal_inverted="no" name="RXD[5]"/>
            <net is_signal_inverted="no" name="RXD[6]"/>
            <net is_signal_inverted="no" name="RXD[7]"/>
            <net is_signal_inverted="no" name="RXD[8]"/>
            <net is_signal_inverted="no" name="RXD[9]"/>
            <net is_signal_inverted="no" name="RXD[10]"/>
            <net is_signal_inverted="no" name="RXD[11]"/>
            <net is_signal_inverted="no" name="RXD[12]"/>
            <net is_signal_inverted="no" name="RXD[13]"/>
            <net is_signal_inverted="no" name="RXD[14]"/>
            <net is_signal_inverted="no" name="RXD[15]"/>
          </bus>
          <bus is_signal_inverted="no" link="all" name="mux4_16:inst71|result" order="lsb_to_msb" radix="hex" state="collapse" type="combinatorial">
            <net is_signal_inverted="no" name="mux4_16:inst71|result[0]"/>
            <net is_signal_inverted="no" name="mux4_16:inst71|result[1]"/>
            <net is_signal_inverted="no" name="mux4_16:inst71|result[2]"/>
            <net is_signal_inverted="no" name="mux4_16:inst71|result[3]"/>
            <net is_signal_inverted="no" name="mux4_16:inst71|result[4]"/>
            <net is_signal_inverted="no" name="mux4_16:inst71|result[5]"/>
            <net is_signal_inverted="no" name="mux4_16:inst71|result[6]"/>
            <net is_signal_inverted="no" name="mux4_16:inst71|result[7]"/>
            <net is_signal_inverted="no" name="mux4_16:inst71|result[8]"/>
            <net is_signal_inverted="no" name="mux4_16:inst71|result[9]"/>
            <net is_signal_inverted="no" name="mux4_16:inst71|result[10]"/>
            <net is_signal_inverted="no" name="mux4_16:inst71|result[11]"/>
            <net is_signal_inverted="no" name="mux4_16:inst71|result[12]"/>
            <net is_signal_inverted="no" name="mux4_16:inst71|result[13]"/>
            <net is_signal_inverted="no" name="mux4_16:inst71|result[14]"/>
            <net is_signal_inverted="no" name="mux4_16:inst71|result[15]"/>
          </bus>
          <bus is_signal_inverted="no" link="all" name="mux4_16:inst71|sel" order="lsb_to_msb" radix="hex" state="collapse" type="combinatorial">
            <net is_signal_inverted="no" name="mux4_16:inst71|sel[0]"/>
            <net is_signal_inverted="no" name="mux4_16:inst71|sel[1]"/>
          </bus>
        </data_view>
        <setup_view>
          <bus is_signal_inverted="no" link="all" name="G_RXD_Buffered" order="lsb_to_msb" radix="hex" state="collapse" type="combinatorial">
            <net is_signal_inverted="no" name="G_RXD_Buffered[0]"/>
            <net is_signal_inverted="no" name="G_RXD_Buffered[1]"/>
            <net is_signal_inverted="no" name="G_RXD_Buffered[2]"/>
            <net is_signal_inverted="no" name="G_RXD_Buffered[3]"/>
            <net is_signal_inverted="no" name="G_RXD_Buffered[4]"/>
            <net is_signal_inverted="no" name="G_RXD_Buffered[5]"/>
            <net is_signal_inverted="no" name="G_RXD_Buffered[6]"/>
            <net is_signal_inverted="no" name="G_RXD_Buffered[7]"/>
            <net is_signal_inverted="no" name="G_RXD_Buffered[8]"/>
            <net is_signal_inverted="no" name="G_RXD_Buffered[9]"/>
            <net is_signal_inverted="no" name="G_RXD_Buffered[10]"/>
            <net is_signal_inverted="no" name="G_RXD_Buffered[11]"/>
            <net is_signal_inverted="no" name="G_RXD_Buffered[12]"/>
            <net is_signal_inverted="no" name="G_RXD_Buffered[13]"/>
            <net is_signal_inverted="no" name="G_RXD_Buffered[14]"/>
            <net is_signal_inverted="no" name="G_RXD_Buffered[15]"/>
          </bus>
          <bus is_signal_inverted="no" link="all" name="H_RXD_Buffered" order="lsb_to_msb" radix="hex" state="collapse" type="combinatorial">
            <net is_signal_inverted="no" name="H_RXD_Buffered[0]"/>
            <net is_signal_inverted="no" name="H_RXD_Buffered[1]"/>
            <net is_signal_inverted="no" name="H_RXD_Buffered[2]"/>
            <net is_signal_inverted="no" name="H_RXD_Buffered[3]"/>
            <net is_signal_inverted="no" name="H_RXD_Buffered[4]"/>
            <net is_signal_inverted="no" name="H_RXD_Buffered[5]"/>
            <net is_signal_inverted="no" name="H_RXD_Buffered[6]"/>
            <net is_signal_inverted="no" name="H_RXD_Buffered[7]"/>
            <net is_signal_inverted="no" name="H_RXD_Buffered[8]"/>
            <net is_signal_inverted="no" name="H_RXD_Buffered[9]"/>
            <net is_signal_inverted="no" name="H_RXD_Buffered[10]"/>
            <net is_signal_inverted="no" name="H_RXD_Buffered[11]"/>
            <net is_signal_inverted="no" name="H_RXD_Buffered[12]"/>
            <net is_signal_inverted="no" name="H_RXD_Buffered[13]"/>
            <net is_signal_inverted="no" name="H_RXD_Buffered[14]"/>
            <net is_signal_inverted="no" name="H_RXD_Buffered[15]"/>
          </bus>
          <bus is_signal_inverted="no" link="all" name="HTXD" order="lsb_to_msb" radix="hex" state="collapse" type="output pin">
            <net is_signal_inverted="no" name="HTXD[0]"/>
            <net is_signal_inverted="no" name="HTXD[1]"/>
            <net is_signal_inverted="no" name="HTXD[2]"/>
            <net is_signal_inverted="no" name="HTXD[3]"/>
            <net is_signal_inverted="no" name="HTXD[4]"/>
            <net is_signal_inverted="no" name="HTXD[5]"/>
            <net is_signal_inverted="no" name="HTXD[6]"/>
            <net is_signal_inverted="no" name="HTXD[7]"/>
            <net is_signal_inverted="no" name="HTXD[8]"/>
            <net is_signal_inverted="no" name="HTXD[9]"/>
            <net is_signal_inverted="no" name="HTXD[10]"/>
            <net is_signal_inverted="no" name="HTXD[11]"/>
            <net is_signal_inverted="no" name="HTXD[12]"/>
            <net is_signal_inverted="no" name="HTXD[13]"/>
            <net is_signal_inverted="no" name="HTXD[14]"/>
            <net is_signal_inverted="no" name="HTXD[15]"/>
          </bus>
          <bus is_signal_inverted="no" link="all" name="TXD" order="lsb_to_msb" radix="hex" state="collapse" type="output pin">
            <net is_signal_inverted="no" name="TXD[0]"/>
            <net is_signal_inverted="no" name="TXD[1]"/>
            <net is_signal_inverted="no" name="TXD[2]"/>
            <net is_signal_inverted="no" name="TXD[3]"/>
            <net is_signal_inverted="no" name="TXD[4]"/>
            <net is_signal_inverted="no" name="TXD[5]"/>
            <net is_signal_inverted="no" name="TXD[6]"/>
            <net is_signal_inverted="no" name="TXD[7]"/>
            <net is_signal_inverted="no" name="TXD[8]"/>
            <net is_signal_inverted="no" name="TXD[9]"/>
            <net is_signal_inverted="no" name="TXD[10]"/>
            <net is_signal_inverted="no" name="TXD[11]"/>
            <net is_signal_inverted="no" name="TXD[12]"/>
            <net is_signal_inverted="no" name="TXD[13]"/>
            <net is_signal_inverted="no" name="TXD[14]"/>
            <net is_signal_inverted="no" name="TXD[15]"/>
          </bus>
          <bus is_signal_inverted="no" link="all" name="RXD" order="lsb_to_msb" radix="hex" state="collapse" type="input pin">
            <net is_signal_inverted="no" name="RXD[0]"/>
            <net is_signal_inverted="no" name="RXD[1]"/>
            <net is_signal_inverted="no" name="RXD[2]"/>
            <net is_signal_inverted="no" name="RXD[3]"/>
            <net is_signal_inverted="no" name="RXD[4]"/>
            <net is_signal_inverted="no" name="RXD[5]"/>
            <net is_signal_inverted="no" name="RXD[6]"/>
            <net is_signal_inverted="no" name="RXD[7]"/>
            <net is_signal_inverted="no" name="RXD[8]"/>
            <net is_signal_inverted="no" name="RXD[9]"/>
            <net is_signal_inverted="no" name="RXD[10]"/>
            <net is_signal_inverted="no" name="RXD[11]"/>
            <net is_signal_inverted="no" name="RXD[12]"/>
            <net is_signal_inverted="no" name="RXD[13]"/>
            <net is_signal_inverted="no" name="RXD[14]"/>
            <net is_signal_inverted="no" name="RXD[15]"/>
          </bus>
          <bus is_signal_inverted="no" link="all" name="mux4_16:inst71|result" order="lsb_to_msb" radix="hex" state="collapse" type="combinatorial">
            <net is_signal_inverted="no" name="mux4_16:inst71|result[0]"/>
            <net is_signal_inverted="no" name="mux4_16:inst71|result[1]"/>
            <net is_signal_inverted="no" name="mux4_16:inst71|result[2]"/>
            <net is_signal_inverted="no" name="mux4_16:inst71|result[3]"/>
            <net is_signal_inverted="no" name="mux4_16:inst71|result[4]"/>
            <net is_signal_inverted="no" name="mux4_16:inst71|result[5]"/>
            <net is_signal_inverted="no" name="mux4_16:inst71|result[6]"/>
            <net is_signal_inverted="no" name="mux4_16:inst71|result[7]"/>
            <net is_signal_inverted="no" name="mux4_16:inst71|result[8]"/>
            <net is_signal_inverted="no" name="mux4_16:inst71|result[9]"/>
            <net is_signal_inverted="no" name="mux4_16:inst71|result[10]"/>
            <net is_signal_inverted="no" name="mux4_16:inst71|result[11]"/>
            <net is_signal_inverted="no" name="mux4_16:inst71|result[12]"/>
            <net is_signal_inverted="no" name="mux4_16:inst71|result[13]"/>
            <net is_signal_inverted="no" name="mux4_16:inst71|result[14]"/>
            <net is_signal_inverted="no" name="mux4_16:inst71|result[15]"/>
          </bus>
          <bus is_signal_inverted="no" link="all" name="mux4_16:inst71|sel" order="lsb_to_msb" radix="hex" state="collapse" type="combinatorial">
            <net is_signal_inverted="no" name="mux4_16:inst71|sel[0]"/>
            <net is_signal_inverted="no" name="mux4_16:inst71|sel[1]"/>
          </bus>
        </setup_view>
      </presentation>
      <trigger attribute_mem_mode="false" gap_record="true" global_temp="1" name="trigger: 2023/11/29 13:59:30  #1" position="pre" power_up_trigger_mode="false" record_data_gap="true" segment_size="1" storage_mode="off" storage_qualifier_disabled="no" storage_qualifier_port_is_pin="true" storage_qualifier_port_name="auto_stp_external_storage_qualifier" storage_qualifier_port_tap_mode="classic" trigger_in="dont_care" trigger_out="active high" trigger_type="circular">
        <power_up_trigger position="pre" storage_qualifier_disabled="no" trigger_in="dont_care" trigger_out="active high"/>
        <events use_custom_flow_control="no">
          <level enabled="yes" name="condition1" type="basic">
            <power_up enabled="yes">
            </power_up>
            <op_node/>
          </level>
        </events>
        <storage_qualifier_events>
          <transitional>00000000000000000000000000000000000000000000000000000000000000000000000000000000000000000000000000
            <pwr_up_transitional>00000000000000000000000000000000000000000000000000000000000000000000000000000000000000000000000000
            </pwr_up_transitional>
          </transitional>
          <storage_qualifier_level type="basic">
            <power_up>
            </power_up>
            <op_node/>
          </storage_qualifier_level>
          <storage_qualifier_level type="basic">
            <power_up>
            </power_up>
            <op_node/>
          </storage_qualifier_level>
          <storage_qualifier_level type="basic">
            <power_up>
            </power_up>
            <op_node/>
          </storage_qualifier_level>
        </storage_qualifier_events>
      </trigger>
    </signal_set>
  </instance>
  <mnemonics/>
</session>
